Chemical,URL,cas_number
(1S)-trans-(Alphar)-cypermethrin,https://cb.imsc.res.in/deduct/chemical/eJaFhpBrbWpvY2t-,83860-32-6
(R)-Lactofen,https://cb.imsc.res.in/deduct/chemical/eJaFhpVwcGxoYGyA,No CAS in DEDuCT
(S)-Lactofen,https://cb.imsc.res.in/deduct/chemical/eJaFhpBrcGtuZ2eG,No CAS in DEDuCT
1-Aminomethylphosphonic acid,https://cb.imsc.res.in/deduct/chemical/eJaFhpBtZ2pv,1066-51-9
1-Bromopropane,https://cb.imsc.res.in/deduct/chemical/eJaFhpZxa2k,106-94-5
"1-Chloro-4-(2,2-dichloro-1-(4-chlorophenyl)ethenyl)-3-(methylsulfonyl)benzene",https://cb.imsc.res.in/deduct/chemical/eJaFhpBqcGppZQ,62938-14-1
1-Methyl-2-pyrrolidinone,https://cb.imsc.res.in/deduct/chemical/eJaFhpBsanFv,872-50-4
1-Methyl-3-isobutylxanthine,https://cb.imsc.res.in/deduct/chemical/eJaFhpJwbHE,28822-58-4
1-Naphthylamine,https://cb.imsc.res.in/deduct/chemical/eJaFhpdva2k,134-32-7
1-Perfluorobutanesulfonic acid,https://cb.imsc.res.in/deduct/chemical/eJaFhpVwb2pt,375-73-5
"1,1-Bis(4-hydroxyphenyl)-1-phenylethane",https://cb.imsc.res.in/deduct/chemical/eJaFhpVranFsaQ,1571-75-1
"1,1-Bis(4-hydroxyphenyl)-2,2-dichloroethylene",https://cb.imsc.res.in/deduct/chemical/eJaFhpdtbXBv,14868-03-2
"1,1'-Biphenyl, 2,2',3,3',4',6-hexachloro-5-(methylsulfonyl)-",https://cb.imsc.res.in/deduct/chemical/eJaFhpBqcGxwYw,149949-90-6
"1,1'-Biphenyl, 2,2',3,4,5,5'-hexachloro-3'-(methylsulfonyl)-",https://cb.imsc.res.in/deduct/chemical/eJaFhpBqbGtpaA,104086-18-2
"1,1'-Biphenyl, 2,2',3,4,5'-pentachloro-3'-(methylsulfonyl)-",https://cb.imsc.res.in/deduct/chemical/eJaFhpBpb2prYg,66640-58-2
"1,1'-Biphenyl, 2,2',3,4,5'-pentachloro-4'-(methylsulfonyl)-",https://cb.imsc.res.in/deduct/chemical/eJaFhpBpb2tpYA,66640-59-3
"1,1'-Biphenyl, 2,2',3,4',5',6-hexachloro-4-(methylsulfonyl)-",https://cb.imsc.res.in/deduct/chemical/eJaFhpBqcGxtZA,116806-76-9
"1,1'-Biphenyl, 2,2',3,4',5',6-hexachloro-5-(methylsulfonyl)-",https://cb.imsc.res.in/deduct/chemical/eJaFhpBuanJuYg,149949-88-2
"1,1'-Biphenyl, 2,2',4,5,5'-pentachloro-4'-(methylsulfonyl)-",https://cb.imsc.res.in/deduct/chemical/eJaFhpBpb2pvaA,66640-61-7
"1,1'-Biphenyl, 2,2',4',5-tetrachloro-3-(methylsulfonyl)-",https://cb.imsc.res.in/deduct/chemical/eJaFhpBqcG5wZw,116807-52-4
"1,1'-Biphenyl, 2,2',4',5,5'-pentachloro-3-(methylsulfonyl)-",https://cb.imsc.res.in/deduct/chemical/eJaFhpBpbnFuYg,66640-60-6
"1,2-Dibromo-3-chloropropane",https://cb.imsc.res.in/deduct/chemical/eJaFhpZrb2k,96-12-8
"1,2-Dibromo-4-(1,2-dibromoethyl)cyclohexane",https://cb.imsc.res.in/deduct/chemical/eJaFhpBxbmtw,3322-93-8
"1,2-Dichlorobenzene",https://cb.imsc.res.in/deduct/chemical/eJaFhpZranI,95-50-1
"1,2-Dihydroxy-9,10-anthracenedione",https://cb.imsc.res.in/deduct/chemical/eJaFhpVrcGw,72-48-0
"1,2-Diphenylcyclobutane, cis-",https://cb.imsc.res.in/deduct/chemical/eJaFhpBqaGxqZg,7694-30-6
"1,2-Diphenylcyclobutane, trans-",https://cb.imsc.res.in/deduct/chemical/eJaFhpBqcG5sYWyC,20071-09-4
"1,2-Propylene oxide",https://cb.imsc.res.in/deduct/chemical/eJaFhpVsbnE,75-56-9
"1,2,3-Trichloropropane",https://cb.imsc.res.in/deduct/chemical/eJaFhpZrb24,96-18-4
"1,2,3,4,5,6-Hexachloronaphthalene",https://cb.imsc.res.in/deduct/chemical/eJaFhpBpb2pvZw,58877-88-6
"1,2,3,4,6,7-Hexachloronaphthalene",https://cb.imsc.res.in/deduct/chemical/eJaFhpBpbm9xaA,103426-96-6
"1,2,3,4,7,8-Hexachlorodibenzodioxin",https://cb.imsc.res.in/deduct/chemical/eJaFhpJxaW5p,39227-28-6
"1,2,3,7,8-Pentachlorodibenzo-p-dioxin",https://cb.imsc.res.in/deduct/chemical/eJaFhpJxa2xx,40321-76-4
"1,2,4-Trichlorodibenzo-1,4-dioxin",https://cb.imsc.res.in/deduct/chemical/eJaFhpJxaW5r,39227-58-2
"1,2,5,6,9,10-Hexabromocyclododecane",https://cb.imsc.res.in/deduct/chemical/eJaFhpBxbGtx,3194-55-6
"1,2,7,8-Tetrachlorodibenzofuran",https://cb.imsc.res.in/deduct/chemical/eJaFhpNrb21s,58802-20-3
"1,3-Butadiene",https://cb.imsc.res.in/deduct/chemical/eJaFhpZxa24,106-99-0
"1,3,5-Tribromo-2-(prop-2-en-1-yloxy)benzene",https://cb.imsc.res.in/deduct/chemical/eJaFhpZvbm9v,3278-89-5
"1,3,5-Tris(4-hydroxyphenyl)-4-propyl-1H-pyrazole",https://cb.imsc.res.in/deduct/chemical/eJaFhpRpa2loZmg,263717-53-9
"1,4-Benzenediamine",https://cb.imsc.res.in/deduct/chemical/eJaFhpZxaG0,106-50-3
"1,4-Cyclohexanedimethanol",https://cb.imsc.res.in/deduct/chemical/eJaFhpZwam4,105-08-8
"1,6-Diiodoperfluorohexane",https://cb.imsc.res.in/deduct/chemical/eJaFhpZxcHJs,375-80-4
"1H-Benzimidazole, 5-methoxy-2-((S)-((4-methoxy-3,5-dimethyl-2- pyridinyl)methyl)sulfinyl)-",https://cb.imsc.res.in/deduct/chemical/eJaFhphubXFuYWk,119141-88-7
"1H,1H,2H,2H-Perfluorodecanol",https://cb.imsc.res.in/deduct/chemical/eJaFhpVybWpx,678-39-7
"2-(2'-Hydroxy-3',5'-di-tert-butylphenyl)benzotriazole",https://cb.imsc.res.in/deduct/chemical/eJaFhpZwa25t,3846-71-7
"2-(2H-Benzotriazol-2-yl)-4,6-di-tert-pentylphenol",https://cb.imsc.res.in/deduct/chemical/eJaFhpJsaW9r,25973-55-1
2-(Propan-2-yl)-9H-thioxanthen-9-one,https://cb.imsc.res.in/deduct/chemical/eJaFhpZybWxr,5495-84-1
"2-Amino-1,3,4-triazole",https://cb.imsc.res.in/deduct/chemical/eJaFhpBvanI,61-82-5
2-Benzimidazolethiol,https://cb.imsc.res.in/deduct/chemical/eJaFhpZpbmlrZQ,583-39-1
"2-bromoallyl 2,4,6-tribromophenylether(bate)",https://cb.imsc.res.in/deduct/chemical/eJaFhpBsbW1rZmuE,99717-56-3
2-Bromopropane,https://cb.imsc.res.in/deduct/chemical/eJaFhpVsbHE,75-26-3
2-Butenal,https://cb.imsc.res.in/deduct/chemical/eJaFhpNtbm1uZg,4170-30-3
"2-Chloro-4,6-diamino-s-triazine",https://cb.imsc.res.in/deduct/chemical/eJaFhpBxb2xp,3397-62-4
2-Ethyl-5-carboxypentyl phthalate,https://cb.imsc.res.in/deduct/chemical/eJaFhpBtb2xwZg,40809-41-4
2-Ethylhexyl methoxycinnamate,https://cb.imsc.res.in/deduct/chemical/eJaFhpFqbWxo,5466-77-3
2-Ethylhexyltetrabromobenzoate,https://cb.imsc.res.in/deduct/chemical/eJaFhpZqampuZmV9,183658-27-7
2-Hydroxyatrazine,https://cb.imsc.res.in/deduct/chemical/eJaFhpBsbGxxaGyAdA,2163-68-0
2-Hydroxybenzo(a)pyrene,https://cb.imsc.res.in/deduct/chemical/eJaFhpNrZ2tv,56892-30-9
2-MeO-BDE-123,https://cb.imsc.res.in/deduct/chemical/eJaFhpBpcGlwYG6B,No CAS in DEDuCT
2-Methyl-4'-(methylthio)-2-morpholinopropiophenone,https://cb.imsc.res.in/deduct/chemical/eJaFhphranFv,71868-10-5
2-Methylresorcinol,https://cb.imsc.res.in/deduct/chemical/eJaFhpBqb21r,608-25-3
2-OH-BDE-123,https://cb.imsc.res.in/deduct/chemical/eJaFhpBqcHBwZm6C,80246-24-8
2-Phenyl phenol,https://cb.imsc.res.in/deduct/chemical/eJaFhpZpaHA,90-43-7
"2,2-(2-Chlorophenyl-4'-chlorophenyl)-1,1-dichloroethene",https://cb.imsc.res.in/deduct/chemical/eJaFhpFtbW5xaA,3424-82-6
"2,2-Bis(4-hydroxyphenyl)-1,1,1-trichloroethane",https://cb.imsc.res.in/deduct/chemical/eJaFhpZvamlq,2971-36-0
"2,2-bis(4-hydroxyphenyl)-propanol",https://cb.imsc.res.in/deduct/chemical/eJaFhpVubW9xYg,142648-65-5
"2,2-di(4-Methacryloxyphenyl)propane",https://cb.imsc.res.in/deduct/chemical/eJaFhpZvbmxx,3253-39-2
"2,2-Dimethoxy-2-phenylacetophenone",https://cb.imsc.res.in/deduct/chemical/eJaFhphpbHBp,24650-42-8
"2,2,2-Trichloroethanol",https://cb.imsc.res.in/deduct/chemical/eJaFhpdrbHI,115-20-8
"2,2'-Dichlorobiphenyl",https://cb.imsc.res.in/deduct/chemical/eJaFhpFubWtq,13029-08-8
"2,2',3,4',5',6-Hexachlorobiphenyl",https://cb.imsc.res.in/deduct/chemical/eJaFhpJxZ2pu,38380-04-0
"2,2',3,5'-Tetrachlorobiphenyl",https://cb.imsc.res.in/deduct/chemical/eJaFhpJxb3Bt,41464-39-5
"2,2',3,5',6-Pentachlorobiphenyl",https://cb.imsc.res.in/deduct/chemical/eJaFhpJxZ2pq,38379-99-6
"2,2',4,4'-Tetrabromodiphenyl ether",https://cb.imsc.res.in/deduct/chemical/eJaFhphuaHBo,5436-43-1
"2,2',4,4',5-Pentabromodiphenyl ether",https://cb.imsc.res.in/deduct/chemical/eJaFhpJvaG5x,60348-60-9
"2,2',4,4',5,5'-Hexachlorodiphenyl ether",https://cb.imsc.res.in/deduct/chemical/eJaFhpRqa2xx,71859-30-8
"2,2',4,5,6'-Pentachlorodiphenyl ether",https://cb.imsc.res.in/deduct/chemical/eJaFhphsbG1v,130892-67-0
"2,2',4,5'-Tetrachlorobiphenyl",https://cb.imsc.res.in/deduct/chemical/eJaFhpJxb3Bu,41464-40-8
"2,2',4,6,6'-Pentachlorobiphenyl",https://cb.imsc.res.in/deduct/chemical/eJaFhphqbW9q,56558-16-8
"2,2',5-Trichlorobiphenyl",https://cb.imsc.res.in/deduct/chemical/eJaFhpJwb2lr,37680-65-2
"2,2',6,6'-Tetrachlorobisphenol A",https://cb.imsc.res.in/deduct/chemical/eJaFhpVvaHI,79-95-8
"2,3-Bis(4-hydroxyphenyl)-propionitrile",https://cb.imsc.res.in/deduct/chemical/eJaFhpBpaW9pZA,1428-67-7
"2,3-Dibromopropyl 2,4,6-tribromophenyl ether",https://cb.imsc.res.in/deduct/chemical/eJaFhpBqb2tpZg,35109-60-5
"2,3,3',4,4',5-Hexachlorobiphenyl",https://cb.imsc.res.in/deduct/chemical/eJaFhpJxZ2px,38380-08-4
"2,3,3',4',6-Pentachlorobiphenyl",https://cb.imsc.res.in/deduct/chemical/eJaFhpJxZ2pt,38380-03-9
"2,3,4-Trichlorophenol",https://cb.imsc.res.in/deduct/chemical/eJaFhpFwbHFq,15950-66-0
"2,3,4,2',3',4'-Hexachlorobiphenyl",https://cb.imsc.res.in/deduct/chemical/eJaFhpJxZ2pw,38380-07-3
"2,3,4,5-Tetrachlorophenate",https://cb.imsc.res.in/deduct/chemical/eJaFhpFqZ2pr,4901-51-3
"2,3,4,7,8-Pentachlorodibenzofuran",https://cb.imsc.res.in/deduct/chemical/eJaFhpNraGtw,57117-31-4
"2,3,5,6-Tetrachlorohydroquinone",https://cb.imsc.res.in/deduct/chemical/eJaFhpVvbWlr,87-87-6
"2,3,5,6-Tetrachlorophenate",https://cb.imsc.res.in/deduct/chemical/eJaFhpBsbWxu,935-95-5
"2,3,6-Trichlorophenol",https://cb.imsc.res.in/deduct/chemical/eJaFhpBsbWpw,933-75-5
"2,3,6,2',3',6'-Hexachlorobiphenyl",https://cb.imsc.res.in/deduct/chemical/eJaFhpJxZ2ts,38411-22-2
"2,3,7,8-Tetrabromodibenzo-4-dioxin",https://cb.imsc.res.in/deduct/chemical/eJaFhpJybmtx,50585-41-6
"2,3',4,4',5-Pentachlorobiphenyl",https://cb.imsc.res.in/deduct/chemical/eJaFhpJub2tr,31508-00-6
"2,3',4,4'5,5'-Hexabromobiphenyl",https://cb.imsc.res.in/deduct/chemical/eJaFhpBpb2lqYw,67888-99-7
"2,3',4',6-Tetrabromodiphenyl ether",https://cb.imsc.res.in/deduct/chemical/eJaFhpBubGlxaG6B,189084-62-6
"2,3',4',6-Tetrachlorodiphenyl ether",https://cb.imsc.res.in/deduct/chemical/eJaFhpdvanJr,130892-66-9
"2,4-D butyl ester",https://cb.imsc.res.in/deduct/chemical/eJaFhpZrZ28,94-80-4
"2,4-Dichlorophenol",https://cb.imsc.res.in/deduct/chemical/eJaFhpdta3I,120-83-2
"2,4-Dichlorophenoxyacetic acid",https://cb.imsc.res.in/deduct/chemical/eJaFhpBtb28,94-75-7
"2,4-Diethyl-9H-thioxanthen-9-one",https://cb.imsc.res.in/deduct/chemical/eJaFhpBraXFqZQ,82799-44-8
"2,4-Dihydroxybenzophenone",https://cb.imsc.res.in/deduct/chemical/eJaFhpdubms,131-56-6
"2,4-Dinitrotoluene",https://cb.imsc.res.in/deduct/chemical/eJaFhpdtbWo,121-14-2
"2,4,2',4'-Tetrachlorobiphenyl",https://cb.imsc.res.in/deduct/chemical/eJaFhpBwZ3Jv,2437-79-8
"2,4,2',4'-Tetranitrobiphenyl",https://cb.imsc.res.in/deduct/chemical/eJaFhpBubm5v,1820-59-3
"2,4,4'-Trichlorobiphenyl",https://cb.imsc.res.in/deduct/chemical/eJaFhpFsa21w,7012-37-5
"2,4,4'-Trihydroxybenzophenone",https://cb.imsc.res.in/deduct/chemical/eJaFhpZsb25q,1470-79-7
"2,4,4',6-Tetrachlorobiphenyl",https://cb.imsc.res.in/deduct/chemical/eJaFhpVsaGlv,32598-12-2
"2,4,5-Trichlorophenol",https://cb.imsc.res.in/deduct/chemical/eJaFhpZrbmo,95-95-4
"2,4,5,2',4',5'-Hexabromobiphenyl",https://cb.imsc.res.in/deduct/chemical/eJaFhpNrcG1w,59080-40-9
"2,4,5,2',4',5'-Hexachlorobiphenyl",https://cb.imsc.res.in/deduct/chemical/eJaFhpJwZ2xs,35065-27-1
"2,4,6-Tribromophenol",https://cb.imsc.res.in/deduct/chemical/eJaFhpBtb2w,118-79-6
"2,4,6-Trichlorophenol",https://cb.imsc.res.in/deduct/chemical/eJaFhpVyaG0,88-06-2
"2,4,6-Triphenyl-1-hexene",https://cb.imsc.res.in/deduct/chemical/eJaFhpBwbmlrYw,18964-53-9
"2,4'-Dichlorobiphenyl",https://cb.imsc.res.in/deduct/chemical/eJaFhpJvcHFq,34883-43-7
"2,4'-Dihydroxydiphenyl sulfone",https://cb.imsc.res.in/deduct/chemical/eJaFhpZyanFp,5397-34-2
"2,5,2',5'-Tetrachlorobiphenyl",https://cb.imsc.res.in/deduct/chemical/eJaFhpJwaW1w,35693-99-3
"2,6-Dichlorophenol",https://cb.imsc.res.in/deduct/chemical/eJaFhpVxcHI,87-65-0
"2,6-Dichlorostyrene",https://cb.imsc.res.in/deduct/chemical/eJaFhpJtaW5s,28469-92-3
"2,6-Dihydroxyanthraquinone",https://cb.imsc.res.in/deduct/chemical/eJaFhpVwbm8,84-60-6
3-(dibutylamino) phenol,https://cb.imsc.res.in/deduct/chemical/eJaFhpVpaGtrZA,43141-69-1
3-[(3-(2-Carboxyethyl)-4-methylpyrrol-2-YL)methylene]-2-indolinone,https://cb.imsc.res.in/deduct/chemical/eJaFhpRrb3JsYW0,215543-92-3
3-Benzylidene camphor,https://cb.imsc.res.in/deduct/chemical/eJaFhpRyZ2puYWc,15087-24-8
"3-Chloro-1,2-dihydroxypropane",https://cb.imsc.res.in/deduct/chemical/eJaFhpZrcGk,96-24-2
3-Methylquercetin,https://cb.imsc.res.in/deduct/chemical/eJaFhpRrb2puZWk,480-19-3
"3-Methylsulfonyl-2,3',4',5-tetrachlorobiphenyl",https://cb.imsc.res.in/deduct/chemical/eJaFhpBtbW9sYA,116807-53-5
3-monobromobisphenol A,https://cb.imsc.res.in/deduct/chemical/eJaFhpVubW9waA,6073-11-6
3-Nitropropionic acid,https://cb.imsc.res.in/deduct/chemical/eJaFhpBvbnE,504-88-1
"3,3-bis(4-hydroxyphenyl)pentane",https://cb.imsc.res.in/deduct/chemical/eJaFhpFrb3FtYGg,3600-64-4
"3,3-dibromobisphenol A",https://cb.imsc.res.in/deduct/chemical/eJaFhpVubW9wZw,29426-78-6
"3,3'-Dichlorobiphenyl",https://cb.imsc.res.in/deduct/chemical/eJaFhpBvamlv,2050-67-1
"3,3',4,4'-Tetrabromobiphenyl",https://cb.imsc.res.in/deduct/chemical/eJaFhpBpbnJtYw,77102-82-0
"3,3',4,4',5,5'-Hexabromobiphenyl",https://cb.imsc.res.in/deduct/chemical/eJaFhpBpa3JsYg,60044-26-0
"3,3',4,5'-Tetrabromodiphenyl ether",https://cb.imsc.res.in/deduct/chemical/eJaFhpdvaWlwZWaG,446254-48-4
"3,3',5-Trichlorobiphenyl",https://cb.imsc.res.in/deduct/chemical/eJaFhpJxZ2xv,38444-87-0
"3,3',5-Triiodothyroacetic acid",https://cb.imsc.res.in/deduct/chemical/eJaFhpRxZ2w,51-24-1
"3,4-Dichloroaniline",https://cb.imsc.res.in/deduct/chemical/eJaFhpZrbHA,95-76-1
"3,4-Methylenedioxymethamphetamine",https://cb.imsc.res.in/deduct/chemical/eJaFhpBvaG4,42542-10-9
"3,4,3',4'-Tetrachlorobiphenyl",https://cb.imsc.res.in/deduct/chemical/eJaFhpJvaHFv,32598-13-3
"3,4,5,3',4'-Pentachlorobiphenyl",https://cb.imsc.res.in/deduct/chemical/eJaFhpVsZ3Jo,57465-28-8
"3,4,5,3',4',5'-Hexachlorobiphenyl",https://cb.imsc.res.in/deduct/chemical/eJaFhpJvaWxp,32774-16-6
"3,5-Dibromo-2-(2,4-dibromophenoxy)phenol",https://cb.imsc.res.in/deduct/chemical/eJaFhpJpb29pYG4,79755-43-4
"3,5,3',5'-Tetrachlorobiphenyl",https://cb.imsc.res.in/deduct/chemical/eJaFhpJva2lo,33284-52-5
3'-Methoxy-4'-nitroflavone,https://cb.imsc.res.in/deduct/chemical/eJaFhpBpZ2pvZWZ_,145370-39-4
"4-(2,4-Dichlorophenoxy)butyric acid",https://cb.imsc.res.in/deduct/chemical/eJaFhpBtb3I,94-82-6
4-(alpha-(4-Hydroxy-1-naphthyl)benzylidene)naphthalen-1(4H)-one,https://cb.imsc.res.in/deduct/chemical/eJaFhpJpamxxZms,145-50-6
4-(Diethylamino)benzaldehyde,https://cb.imsc.res.in/deduct/chemical/eJaFhpVwaGps,120-21-8
4-Chloro-2-cresol,https://cb.imsc.res.in/deduct/chemical/eJaFhpBtb25t,1570-64-5
4-Chloroaniline,https://cb.imsc.res.in/deduct/chemical/eJaFhpZxaGs,106-47-8
4-Chlorophenoxyacetic acid,https://cb.imsc.res.in/deduct/chemical/eJaFhpFvaWtx,122-88-3
4-Cyclohexylphenol,https://cb.imsc.res.in/deduct/chemical/eJaFhpBtamtv,1131-60-8
4-Dodecylphenol,https://cb.imsc.res.in/deduct/chemical/eJaFhpVvZ2xo,104-43-8
"4-Ethyl-1-phospha-2,6,7 trioxabicyclo(2.2.2)octane-1-oxide",https://cb.imsc.res.in/deduct/chemical/eJaFhpBsb29x,1005-93-2
4-Fluoro-4'-hydroxybenzophenone,https://cb.imsc.res.in/deduct/chemical/eJaFhpBqbm9uZg,25913-05-7
"4-hydroxy-2,2,3,4-tetrabromodiphenyl ether",https://cb.imsc.res.in/deduct/chemical/eJaFhpZqanBsYmaG,602326-22-7
"4-hydroxy-2,3,3,4,5-pentachlorobiphenyl",https://cb.imsc.res.in/deduct/chemical/eJaFhpBwbnJsZw,152969-11-4
"4-Hydroxy-2',4',6'-trichlorobiphenyl",https://cb.imsc.res.in/deduct/chemical/eJaFhpBpbGlrZg,14962-28-8
4-Hydroxyazobenzene,https://cb.imsc.res.in/deduct/chemical/eJaFhpBubGtx,1689-82-3
4-Hydroxybenzoic acid,https://cb.imsc.res.in/deduct/chemical/eJaFhpBsbA,99-96-7
4-Hydroxybenzoic acid 3-hydroxybutyl ester,https://cb.imsc.res.in/deduct/chemical/eJaFhpdubXFqZWeG,No CAS in DEDuCT
4-Hydroxybenzophenone,https://cb.imsc.res.in/deduct/chemical/eJaFhpBtam1v,1137-42-4
4-Isopropyl-9H-thioxanthen-9-one,https://cb.imsc.res.in/deduct/chemical/eJaFhpBub21oYw,83846-86-0
4-Nitro-3-cresol,https://cb.imsc.res.in/deduct/chemical/eJaFhpBwa2pq,2581-34-2
4-Nitro-3-phenylphenol,https://cb.imsc.res.in/deduct/chemical/eJaFhpNtaW5pZWt-,21419-75-0
4-Nitroaniline,https://cb.imsc.res.in/deduct/chemical/eJaFhpZtbm4,100-01-6
4-Nitrotoluene,https://cb.imsc.res.in/deduct/chemical/eJaFhpZtbmw,99-99-0
4-Nonylphenol,https://cb.imsc.res.in/deduct/chemical/eJaFhpBwbGs,104-40-5
"4-Nonylphenol, branched",https://cb.imsc.res.in/deduct/chemical/eJaFhpJsb3BrYw,84852-15-3
4-Octylphenol,https://cb.imsc.res.in/deduct/chemical/eJaFhpBubmxo,1806-26-4
4-Pentylphenol,https://cb.imsc.res.in/deduct/chemical/eJaFhpFvcHBt,14938-35-3
4-Phenylphenol,https://cb.imsc.res.in/deduct/chemical/eJaFhpZqZ2w,92-69-3
4-sec-Butylphenol,https://cb.imsc.res.in/deduct/chemical/eJaFhpZtbGw,99-71-8
4-tert-Octylphenol,https://cb.imsc.res.in/deduct/chemical/eJaFhpdxaG0,140-66-9
4-Xylene,https://cb.imsc.res.in/deduct/chemical/eJaFhpZxZ3I,106-42-3
"4,4-bis(4-hydroxyphenyl)heptane",https://cb.imsc.res.in/deduct/chemical/eJaFhpBqcG5sYWd-,7425-79-8
"4,4'-(4-Methylpentane-2,2-diyl)diphenol",https://cb.imsc.res.in/deduct/chemical/eJaFhpdqaW5x,6807-17-6
"4,4'-(Octahydro-4,7-methano-5H-inden-5-ylidene)bisphenol",https://cb.imsc.res.in/deduct/chemical/eJaFhpBpaXBqZA,1943-97-1
"4,4'-Bisphenol F",https://cb.imsc.res.in/deduct/chemical/eJaFhpBraGpp,620-92-8
"4,4'-Cyclohexylidenebisphenol",https://cb.imsc.res.in/deduct/chemical/eJaFhpFsaW1sZg,843-55-0
"4,4'-Diaminodiphenylmethane",https://cb.imsc.res.in/deduct/chemical/eJaFhpZubnA,101-77-9
"4,4'-Dihydoxy-benzophenone",https://cb.imsc.res.in/deduct/chemical/eJaFhpVyaG5o,611-99-4
"4,4'-Dihydroxybiphenyl",https://cb.imsc.res.in/deduct/chemical/eJaFhpZqaGs,92-88-6
"4,4'-Diiodobiphenyl",https://cb.imsc.res.in/deduct/chemical/eJaFhpZvam1w,3001-15-8
"4,4'-Isopropylidenedi-2,6-xylol",https://cb.imsc.res.in/deduct/chemical/eJaFhpZybmpv,5613-46-7
"4,4'-Propane-1,1-diyldiphenol",https://cb.imsc.res.in/deduct/chemical/eJaFhpNrZ2poaGY,1576-13-2
5-Caffeylquinic acid,https://cb.imsc.res.in/deduct/chemical/eJaFhpRrb2luY2g,906-33-2
"5-Chloro-2-(2,4-dichlorophenoxy)phenol",https://cb.imsc.res.in/deduct/chemical/eJaFhpRubW0,3380-34-5
"5-Nitro-1,2,4-triazol-3-one",https://cb.imsc.res.in/deduct/chemical/eJaFhpBsbG1oZm2DeQ,932-64-9
"5,7-Dihydroxytryptamine",https://cb.imsc.res.in/deduct/chemical/eJaFhpJubnFp,31363-74-3
6-Hydroxyflavone,https://cb.imsc.res.in/deduct/chemical/eJaFhpZraXBx,6665-83-4
6-MeO-BDE-47,https://cb.imsc.res.in/deduct/chemical/eJaFhpFsaW1xZGuD,102739-99-1
"6-methyl-1,3,8-trichlorodibenzofuran",https://cb.imsc.res.in/deduct/chemical/eJaFhpBqa3JoYA,118174-38-2
"7-acetyl-1,1,3,4,4,6-hexamethyl-1,2,3,4-tetrahydronaphthalene",https://cb.imsc.res.in/deduct/chemical/eJaFhpdya21o,1506-02-1
"7,12-Dimethylbenz(a)anthracene",https://cb.imsc.res.in/deduct/chemical/eJaFhpVpZ2o,57-97-6
"7,8-Dihydro-7,8-dihydroxybenzo(a)pyrene 9,10-oxide",https://cb.imsc.res.in/deduct/chemical/eJaFhpNqamtq,55097-80-8
8-Bromo cyclic adenosine monophosphate,https://cb.imsc.res.in/deduct/chemical/eJaFhpJrZ2ps,23583-48-4
8:2 monoalkylated phosphate surfactants,https://cb.imsc.res.in/deduct/chemical/eJaFhpBpaG1rZ2iG,57678-03-2
"9,10-dihydroxy-12-octadecenoic acid",https://cb.imsc.res.in/deduct/chemical/eJaFhpRrb2txZW0,No CAS in DEDuCT
Abamectin,https://cb.imsc.res.in/deduct/chemical/eJaFhpVtam5waWU,71751-41-2
Acenaphthylene,https://cb.imsc.res.in/deduct/chemical/eJaFhphqbWo,208-96-8
Acephate,https://cb.imsc.res.in/deduct/chemical/eJaFhpByb2s,30560-19-1
Acetaldehyde,https://cb.imsc.res.in/deduct/chemical/eJaFhpBwbg,75-07-0
Acetaminophen,https://cb.imsc.res.in/deduct/chemical/eJaFhpByb2w,103-90-2
Acetamiprid,https://cb.imsc.res.in/deduct/chemical/eJaFhpFqamlqYQ,135410-20-7
Acetochlor,https://cb.imsc.res.in/deduct/chemical/eJaFhpByb3E,34256-82-1
Acetonylacetone,https://cb.imsc.res.in/deduct/chemical/eJaFhpdpam4,110-13-4
Acetyl tributyl citrate,https://cb.imsc.res.in/deduct/chemical/eJaFhpVuZ24,77-90-7
Acid Red 51,https://cb.imsc.res.in/deduct/chemical/eJaFhpBrcG9pZmiF,16423-68-0
Acrylamide,https://cb.imsc.res.in/deduct/chemical/eJaFhpVubnI,79-06-1
Acrylonitrile,https://cb.imsc.res.in/deduct/chemical/eJaFhpZxbG4,107-13-1
Aflatoxin B1,https://cb.imsc.res.in/deduct/chemical/eJaFhpBxbXJoZw,1162-65-8
Alachlor,https://cb.imsc.res.in/deduct/chemical/eJaFhpFpbnE,15972-60-8
Aldrin,https://cb.imsc.res.in/deduct/chemical/eJaFhpBrampoaWmE,309-00-2
Allyl alcohol,https://cb.imsc.res.in/deduct/chemical/eJaFhpZxbHE,107-18-6
Alpha-Cypermethrin,https://cb.imsc.res.in/deduct/chemical/eJaFhphsam5v,67375-30-8
Alpha-Endosulfan,https://cb.imsc.res.in/deduct/chemical/eJaFhpVtamxqYmw,959-98-8
alpha-Naphthoflavone,https://cb.imsc.res.in/deduct/chemical/eJaFhpBqbnJo,604-59-1
alpha-Zearalenol,https://cb.imsc.res.in/deduct/chemical/eJaFhpRrb21uZGo,36455-72-8
Alphamethrin,https://cb.imsc.res.in/deduct/chemical/eJaFhpJpb29pZ2c,72204-44-5
Alternariol,https://cb.imsc.res.in/deduct/chemical/eJaFhpRsbHJsaGo,641-38-3
Aluminum sulfate,https://cb.imsc.res.in/deduct/chemical/eJaFhpJpb2lvYWc,17927-65-0
Ametryn,https://cb.imsc.res.in/deduct/chemical/eJaFhpBsaW9r,834-12-8
Aminoglutethimide,https://cb.imsc.res.in/deduct/chemical/eJaFhpFqa24,125-84-8
Amitraz,https://cb.imsc.res.in/deduct/chemical/eJaFhpJvamts,33089-61-1
Ammonium chloride,https://cb.imsc.res.in/deduct/chemical/eJaFhpFubGpv,12125-02-9
Ammonium perchlorate,https://cb.imsc.res.in/deduct/chemical/eJaFhpFtbWxx,7790-98-9
Ampyrone,https://cb.imsc.res.in/deduct/chemical/eJaFhpFqbGo,83-07-8
Amsonic acid,https://cb.imsc.res.in/deduct/chemical/eJaFhpRrb21rZ20,81-11-8
Anastrozole,https://cb.imsc.res.in/deduct/chemical/eJaFhpFqb3A,120511-73-1
Aniline,https://cb.imsc.res.in/deduct/chemical/eJaFhpVqaG4,62-53-3
Apigenin,https://cb.imsc.res.in/deduct/chemical/eJaFhpRrb2lsZGg,520-36-5
Aroclor 1242,https://cb.imsc.res.in/deduct/chemical/eJaFhpVsaGlr,53469-21-9
Aroclor 1254,https://cb.imsc.res.in/deduct/chemical/eJaFhpNpa3Bo,11097-69-1
Arsenic,https://cb.imsc.res.in/deduct/chemical/eJaFhpRsbHJtaWs,7440-38-2
Arsenic trioxide,https://cb.imsc.res.in/deduct/chemical/eJaFhpBtb3Fw,1327-53-3
Arsenite,https://cb.imsc.res.in/deduct/chemical/eJaFhpRtaw,15502-74-6
Artemether,https://cb.imsc.res.in/deduct/chemical/eJaFhpVxcGpp,71963-77-4
Ascorbic acid,https://cb.imsc.res.in/deduct/chemical/eJaFhpRtbXBoYGuE,50-81-7
Atorvastatin calcium trihydrate,https://cb.imsc.res.in/deduct/chemical/eJaFhpZqamppaWWC,344423-98-9
Atrazine,https://cb.imsc.res.in/deduct/chemical/eJaFhpFrbG8,1912-24-9
Basic Violet 2,https://cb.imsc.res.in/deduct/chemical/eJaFhpBxbWpp,3248-91-7
BAY 93820,https://cb.imsc.res.in/deduct/chemical/eJaFhphpa3Bx,24353-61-5
Benflumetol,https://cb.imsc.res.in/deduct/chemical/eJaFhpVtanBraGU,82186-77-4
Benomyl,https://cb.imsc.res.in/deduct/chemical/eJaFhpFxbnFo,17804-35-2
Benz(a)anthracene,https://cb.imsc.res.in/deduct/chemical/eJaFhpRybG0,56-55-3
Benzanthrone,https://cb.imsc.res.in/deduct/chemical/eJaFhpVvcHA,82-05-3
Benzene,https://cb.imsc.res.in/deduct/chemical/eJaFhpFtaA,71-43-2
Benzo(a)pyrene,https://cb.imsc.res.in/deduct/chemical/eJaFhpFsam8,50-32-8
Benzo(b)fluoranthene,https://cb.imsc.res.in/deduct/chemical/eJaFhphqbGw,205-99-2
Benzo(k)fluoranthene,https://cb.imsc.res.in/deduct/chemical/eJaFhphqbHE,207-08-9
Benzophenone,https://cb.imsc.res.in/deduct/chemical/eJaFhpJqZ2s,119-61-9
Benzophenone-2,https://cb.imsc.res.in/deduct/chemical/eJaFhpdubmo,131-55-5
Benzophenone-3,https://cb.imsc.res.in/deduct/chemical/eJaFhpNvams,131-57-7
Benzophenone-6,https://cb.imsc.res.in/deduct/chemical/eJaFhpdubmk,131-54-4
Benzyl chloride,https://cb.imsc.res.in/deduct/chemical/eJaFhpZuZ2w,100-44-7
Benzyl p-hydroxybenzoate,https://cb.imsc.res.in/deduct/chemical/eJaFhpZqb2k,94-18-8
Benzyl salicylate,https://cb.imsc.res.in/deduct/chemical/eJaFhpdsbWw,118-58-1
beta-Hexachlorocyclohexane,https://cb.imsc.res.in/deduct/chemical/eI6UhpJqcGZwZWKE,319-85-7
beta-Naphthoflavone,https://cb.imsc.res.in/deduct/chemical/eJaFhpFsbWo,6051-87-2
Beta-Sitosterol,https://cb.imsc.res.in/deduct/chemical/eJaFhpFraWtwZA,83-46-5
beta-Zearalenol,https://cb.imsc.res.in/deduct/chemical/eJaFhpVtanBrZWc,71030-11-0
Biochanin A,https://cb.imsc.res.in/deduct/chemical/eJaFhpRrb2lrZ2g,491-80-5
"Bis(2-ethylhexyl) 2,3,4,5-tetrabromophthalate",https://cb.imsc.res.in/deduct/chemical/eJaFhpBqbmtxYQ,26040-51-7
Bis(2-ethylhexyl) phthalate,https://cb.imsc.res.in/deduct/chemical/eJaFhpdsa2w,117-81-7
Bis(2-methoxyethyl) phthalate,https://cb.imsc.res.in/deduct/chemical/eJaFhpdsa20,117-82-8
"Bis(3,3,4,4,5,5,6,6,7,7,8,8,9,9,10,10,11,11,12,12,12-heneicosafluoro-1-dodecanol) hydrogen phosphate",https://cb.imsc.res.in/deduct/chemical/eJaFhpJpaWtqZWo,1895-26-7
Bis(4-aminophenyl) ether,https://cb.imsc.res.in/deduct/chemical/eJaFhpZubnI,101-80-4
Bis(4-hydroxyphenyl)sulfone,https://cb.imsc.res.in/deduct/chemical/eJaFhpVvaW8,80-09-1
Bis(4-oxyphenyl)sulfide,https://cb.imsc.res.in/deduct/chemical/eJaFhpBwbHBo,2664-63-3
Bis(tributyltin) oxide,https://cb.imsc.res.in/deduct/chemical/eJaFhpBvbXFqZ2mD,56-35-9
Bisphenol A,https://cb.imsc.res.in/deduct/chemical/eJaFhpVvaWw,80-05-7
Bisphenol A diglycidyl ether,https://cb.imsc.res.in/deduct/chemical/eJaFhpFrb28,1675-54-3
Bisphenol AF,https://cb.imsc.res.in/deduct/chemical/eJaFhpZsb29s,1478-61-1
Bisphenol B,https://cb.imsc.res.in/deduct/chemical/eJaFhpVvaG9u,77-40-7
Bisphenol E,https://cb.imsc.res.in/deduct/chemical/eJaFhpVpb2ppZg,2081-08-5
Bisphenol P,https://cb.imsc.res.in/deduct/chemical/eJaFhpVsZ2xtZQ,2167-51-3
Bitertanol,https://cb.imsc.res.in/deduct/chemical/eJaFhphqbW5u,55179-31-2
Boric acid,https://cb.imsc.res.in/deduct/chemical/eJaFhpZvaXE,10043-35-3
Boron,https://cb.imsc.res.in/deduct/chemical/eJaFhpRtbWtrYWY,7440-42-8
Bromodichloromethane,https://cb.imsc.res.in/deduct/chemical/eJaFhpVsbHI,75-27-4
Bromoxynil,https://cb.imsc.res.in/deduct/chemical/eJaFhpBubGxp,1689-84-5
Budesonide,https://cb.imsc.res.in/deduct/chemical/eJaFhpRrb2poYGk,51333-22-3
Busulfan,https://cb.imsc.res.in/deduct/chemical/eJaFhpFtbnE,55-98-1
Butyl benzyl phthalate,https://cb.imsc.res.in/deduct/chemical/eJaFhpFsa3A,85-68-7
Butyl glycolyl butyl phthalate,https://cb.imsc.res.in/deduct/chemical/eJaFhpVxaHI,85-70-1
Butyl p-hydroxybenzoate,https://cb.imsc.res.in/deduct/chemical/eJaFhpZqb20,94-26-8
Butylated hydroxyanisole,https://cb.imsc.res.in/deduct/chemical/eJaFhpFtbW9v,25013-16-5
Butylated hydroxytoluene,https://cb.imsc.res.in/deduct/chemical/eJaFhpJqa2ls,128-37-0
Butylphen,https://cb.imsc.res.in/deduct/chemical/eJaFhpZscGw,98-54-4
Cadmium,https://cb.imsc.res.in/deduct/chemical/eJaFhpFscHBr,7440-43-9
Cadmium acetate,https://cb.imsc.res.in/deduct/chemical/eJaFhpBpcHFu,543-90-8
Cadmium chloride,https://cb.imsc.res.in/deduct/chemical/eJaFhpFtcG1v,10108-64-2
Cadmium nitrate,https://cb.imsc.res.in/deduct/chemical/eJaFhpFuaG5s,10325-94-7
Caffeine,https://cb.imsc.res.in/deduct/chemical/eJaFhpFuaHI,58-08-2
Captafol,https://cb.imsc.res.in/deduct/chemical/eJaFhpBwZ2xw,2425-06-1
Captan,https://cb.imsc.res.in/deduct/chemical/eJaFhpdvZ28,133-06-2
Carbamylhydrazine,https://cb.imsc.res.in/deduct/chemical/eJaFhpRqcG8,57-56-7
Carbaryl,https://cb.imsc.res.in/deduct/chemical/eJaFhpVqaXI,63-25-2
Carbendazim,https://cb.imsc.res.in/deduct/chemical/eJaFhpFua2tx,10605-21-7
Carbofuran,https://cb.imsc.res.in/deduct/chemical/eJaFhpFubW8,1563-66-2
Carbon,https://cb.imsc.res.in/deduct/chemical/eJaFhpRtbWtrYWU,7440-44-0
Carbon disulfide,https://cb.imsc.res.in/deduct/chemical/eJaFhpVsa3E,75-15-0
Carbon tetrachloride,https://cb.imsc.res.in/deduct/chemical/eJaFhpRya2w,56-23-5
Carmellose,https://cb.imsc.res.in/deduct/chemical/eJaFhpFtbm1w,9000-11-7
Cesium chloride,https://cb.imsc.res.in/deduct/chemical/eJaFhpFtaXJr,7647-17-8
Chlordane,https://cb.imsc.res.in/deduct/chemical/eJaFhpRycGw,12789-03-6
Chlordecone,https://cb.imsc.res.in/deduct/chemical/eJaFhpFycA,143-50-0
Chlordimeform,https://cb.imsc.res.in/deduct/chemical/eJaFhpFrbG1s,6164-98-3
Chlorfenvinphos,https://cb.imsc.res.in/deduct/chemical/eJaFhpBpaGlv,470-90-6
Chlorine dioxide,https://cb.imsc.res.in/deduct/chemical/eJaFhpFtb3Bo,10049-04-4
Chlormequat,https://cb.imsc.res.in/deduct/chemical/eJaFhpBsb2xu,999-81-5
Chlorocresol,https://cb.imsc.res.in/deduct/chemical/eJaFhpBwams,59-50-7
Chloroform,https://cb.imsc.res.in/deduct/chemical/eJaFhpVraGs,67-66-3
Chlorophenothane,https://cb.imsc.res.in/deduct/chemical/eJaFhpJpam8,50-29-3
Chlorothalonil,https://cb.imsc.res.in/deduct/chemical/eJaFhpBucGpo,1897-45-6
Chlorotoluron,https://cb.imsc.res.in/deduct/chemical/eJaFhpFwanBt,15545-48-9
Chlorowax 500C,https://cb.imsc.res.in/deduct/chemical/eJaFhpVuanBsaW0,1852481-27-6
Chlorpyrifos,https://cb.imsc.res.in/deduct/chemical/eJaFhpFwamk,2921-88-2
Chlorpyrifos-methyl,https://cb.imsc.res.in/deduct/chemical/eJaFhpFqb2lr,5598-13-0
Chlortetracycline,https://cb.imsc.res.in/deduct/chemical/eJaFhpRtbXBtZ2yE,57-62-5
Chromium,https://cb.imsc.res.in/deduct/chemical/eJaFhpFscHBu,7440-47-3
Chromium hexavalent ion,https://cb.imsc.res.in/deduct/chemical/eJaFhpFyaGxp,18540-29-9
"Chromium, ion (Cr3 )",https://cb.imsc.res.in/deduct/chemical/eJaFhpFwbW9w,16065-83-1
Chrysin,https://cb.imsc.res.in/deduct/chemical/eJaFhpRrb2puYGw,480-40-0
Chrysophanic acid,https://cb.imsc.res.in/deduct/chemical/eJaFhpBpaWlw,481-74-3
Cinnamaldehyde,https://cb.imsc.res.in/deduct/chemical/eJaFhpVsbm5pYQ,104-55-2
Cisplatin,https://cb.imsc.res.in/deduct/chemical/eJaFhpdtbXJp,14283-03-5
Citalopram,https://cb.imsc.res.in/deduct/chemical/eJaFhpFwbmo,59729-33-8
Clomiphene citrate,https://cb.imsc.res.in/deduct/chemical/eJaFhpVpcHBs,50-41-9
Clotrimazole,https://cb.imsc.res.in/deduct/chemical/eJaFhpFxaGs,23593-75-1
Colchicine,https://cb.imsc.res.in/deduct/chemical/eJaFhpVqbXA,64-86-8
Colforsin,https://cb.imsc.res.in/deduct/chemical/eJaFhpNwcGxu,66575-29-9
Congo red,https://cb.imsc.res.in/deduct/chemical/eJaFhpBqampr,573-58-0
Coumestrol,https://cb.imsc.res.in/deduct/chemical/eJaFhpRrb2pvYGw,479-13-0
Crizotinib,https://cb.imsc.res.in/deduct/chemical/eJaFhpBqbWtuZWt9,877399-52-5
Cyanazine,https://cb.imsc.res.in/deduct/chemical/eJaFhpJpbnBr,21725-46-2
Cyanoginosin LR,https://cb.imsc.res.in/deduct/chemical/eJaFhpNtbG1rZA,101043-37-2
Cycloheximide,https://cb.imsc.res.in/deduct/chemical/eJaFhpVqcHA,66-81-9
"Cyclooctane, 1,2,5,6-tetrabromo-",https://cb.imsc.res.in/deduct/chemical/eJaFhpFybW9sZg,3194-57-8
Cyclophosphamide,https://cb.imsc.res.in/deduct/chemical/eJaFhpFyZ3A,50-18-0
Cyclosporin A,https://cb.imsc.res.in/deduct/chemical/eJaFhpRrb21rZ2g,59865-13-3
Cyhexatin,https://cb.imsc.res.in/deduct/chemical/eJaFhpVsaXBoZWk,13121-70-5
Cylindrospermopsin,https://cb.imsc.res.in/deduct/chemical/eJaFhpNrbWtwZmV9,143545-90-8
Cypermethrin,https://cb.imsc.res.in/deduct/chemical/eJaFhpFyaGs,52315-07-8
Cyproconazole,https://cb.imsc.res.in/deduct/chemical/eJaFhpdvaGxq,94361-06-5
Cyproterone,https://cb.imsc.res.in/deduct/chemical/eJaFhpRrb21tY2w,2098-66-0
Cyproterone acetate,https://cb.imsc.res.in/deduct/chemical/eJaFhphxb2k,427-51-0
Daidzein,https://cb.imsc.res.in/deduct/chemical/eJaFhpRrb2pvYG0,486-66-8
Danthron,https://cb.imsc.res.in/deduct/chemical/eJaFhpFybGk,117-10-2
Decabromobiphenyl ether,https://cb.imsc.res.in/deduct/chemical/eJaFhpBta2po,1163-19-5
Decabromodiphenyl ethane,https://cb.imsc.res.in/deduct/chemical/eJaFhpBpcHFtaG2G,84852-53-9
Deltamethrin,https://cb.imsc.res.in/deduct/chemical/eJaFhpNpbHFt,52918-63-5
Deoxynivalenol,https://cb.imsc.res.in/deduct/chemical/eJaFhpNpZ2ts,51481-10-8
Detirelix,https://cb.imsc.res.in/deduct/chemical/eJaFhpBvaGtxZm6F,89662-30-6
Dexamethasone,https://cb.imsc.res.in/deduct/chemical/eJaFhpRwa2w,50-02-2
Di-(2-ethylhexyl) adipate,https://cb.imsc.res.in/deduct/chemical/eJaFhpZva2o,103-23-1
Di-(5-methylhexyl)phthalate,https://cb.imsc.res.in/deduct/chemical/eJaFhpRyaGtoYA,41451-28-9
Di-n-butyltin,https://cb.imsc.res.in/deduct/chemical/eJaFhpVtb20,1002-53-5
Diamyl phthalate,https://cb.imsc.res.in/deduct/chemical/eJaFhpdubWo,131-18-0
Diazinon,https://cb.imsc.res.in/deduct/chemical/eJaFhpJpaHA,333-41-5
"Dibenz(a,h)anthracene",https://cb.imsc.res.in/deduct/chemical/eJaFhpRxb3I,53-70-3
"Dibenzo(b,e)(1,4)dioxin, 2-bromo-3,7,8-trichloro-",https://cb.imsc.res.in/deduct/chemical/eJaFhpBqa3FxZg,109333-33-7
"Dibenzo(b,e)(1,4)dioxin, 2,3-dibromo-7,8-dichloro-",https://cb.imsc.res.in/deduct/chemical/eJaFhpJybmtw,50585-40-5
"Dibenzofuran, 2,3,7,8-tetrabromo-",https://cb.imsc.res.in/deduct/chemical/eJaFhpNycHBr,67733-57-7
Dibenzyl phthalate,https://cb.imsc.res.in/deduct/chemical/eJaFhpFrZ3BvYw,523-31-9
Dibromoacetic acid,https://cb.imsc.res.in/deduct/chemical/eJaFhpBra2xr,631-64-1
Dibromoacetonitrile,https://cb.imsc.res.in/deduct/chemical/eJaFhpBxbWpv,3252-43-5
Dibutyl phthalate,https://cb.imsc.res.in/deduct/chemical/eJaFhpJpaW8,84-74-2
Dibutyldichlorotin,https://cb.imsc.res.in/deduct/chemical/eJaFhpBrbXFw,683-18-1
Dibutyltin dilaurate,https://cb.imsc.res.in/deduct/chemical/eJaFhphxZ3JsYms,77-58-7
Dicapryl succinate,https://cb.imsc.res.in/deduct/chemical/eJaFhpdta3Bt,14491-66-8
Dichloroacetic acid,https://cb.imsc.res.in/deduct/chemical/eJaFhpVucHA,79-43-6
Dichlorodiphenyl dichloroethylene,https://cb.imsc.res.in/deduct/chemical/eJaFhpJpam4,72-55-9
Dichlorodiphenyldichloroethane,https://cb.imsc.res.in/deduct/chemical/eJaFhpVrcG0,72-54-8
Dichloromethane,https://cb.imsc.res.in/deduct/chemical/eJaFhpVsa20,75-09-2
Dichlorvos,https://cb.imsc.res.in/deduct/chemical/eJaFhpJpanI,62-73-7
Diclofenac,https://cb.imsc.res.in/deduct/chemical/eJaFhpJpamw,15307-86-5
Diclofop-methyl,https://cb.imsc.res.in/deduct/chemical/eJaFhpJycHFt,51338-27-3
Dicofol,https://cb.imsc.res.in/deduct/chemical/eJaFhpdrbXE,115-32-2
Dicyclohexyl phthalate,https://cb.imsc.res.in/deduct/chemical/eJaFhpVwbnA,84-61-7
Dieldrin,https://cb.imsc.res.in/deduct/chemical/eJaFhphvcG1xYQ,60-57-1
Dienestrol,https://cb.imsc.res.in/deduct/chemical/eJaFhpVvbm1vZg,13029-44-2
Diethyl adipate,https://cb.imsc.res.in/deduct/chemical/eJaFhpdxa20,141-28-6
Diethyl ether,https://cb.imsc.res.in/deduct/chemical/eJaFhpJrb2w,60-29-7
Diethyl hydrogen phosphate,https://cb.imsc.res.in/deduct/chemical/eJaFhpVuaw,598-02-7
Diethyl phthalate,https://cb.imsc.res.in/deduct/chemical/eJaFhpVwb2o,84-66-2
Diethylstilbestrol,https://cb.imsc.res.in/deduct/chemical/eJaFhpNtb25rZw,56-53-1
Dihexyl phthalate,https://cb.imsc.res.in/deduct/chemical/eJaFhpVwb28,84-75-3
Diisobutyl phthalate,https://cb.imsc.res.in/deduct/chemical/eJaFhpVwb2s,84-69-5
Diisodecyl phthalate,https://cb.imsc.res.in/deduct/chemical/eJaFhpJsbHJx,26761-40-0
Diisononyl hexahydrophthalate,https://cb.imsc.res.in/deduct/chemical/eJaFhpBqbGtsZm19,166412-78-8
Diisononyl phthalate,https://cb.imsc.res.in/deduct/chemical/eJaFhpRyZ3FrZg,68515-48-0
Diisopentyl phthalate,https://cb.imsc.res.in/deduct/chemical/eJaFhpVyZ25x,605-50-5
Dimethyl phthalate,https://cb.imsc.res.in/deduct/chemical/eJaFhpdubG0,131-11-3
Dimethylbenzene,https://cb.imsc.res.in/deduct/chemical/eJaFhpVxbGlvYWo,1330-20-7
Dinocap,https://cb.imsc.res.in/deduct/chemical/eJaFhpRrb21raG4,131-72-6
Dinonyl phthalate,https://cb.imsc.res.in/deduct/chemical/eJaFhpVwb3A,84-76-4
Dinoseb,https://cb.imsc.res.in/deduct/chemical/eJaFhpVybGk,88-85-7
Diolamine,https://cb.imsc.res.in/deduct/chemical/eJaFhpdqaGw,111-42-2
Diquat dichloride,https://cb.imsc.res.in/deduct/chemical/eJaFhpBycG1r,4032-26-2
Disulfiram,https://cb.imsc.res.in/deduct/chemical/eJaFhpJqaHA,97-77-8
Ditiocarb sodium,https://cb.imsc.res.in/deduct/chemical/eJaFhpRsanBqaA,148-18-5
Dityrosine,https://cb.imsc.res.in/deduct/chemical/eJaFhpBpbnJoZA,980-21-2
Diuron,https://cb.imsc.res.in/deduct/chemical/eJaFhpJqaWk,330-54-1
Doxycycline,https://cb.imsc.res.in/deduct/chemical/eJaFhpRtbXBpYmWA,564-25-0
Econazole,https://cb.imsc.res.in/deduct/chemical/eJaFhpJqcHE,27220-47-9
Egmol,https://cb.imsc.res.in/deduct/chemical/eJaFhpVva3Jt,81-92-5
Emodin,https://cb.imsc.res.in/deduct/chemical/eJaFhpJraWk,518-82-1
Endosulfan,https://cb.imsc.res.in/deduct/chemical/eJaFhpJraW0,115-29-7
Endosulfan II,https://cb.imsc.res.in/deduct/chemical/eJaFhpBramlxZGt9,33213-65-9
Endrin,https://cb.imsc.res.in/deduct/chemical/eJaFhpJpa3E,128-10-9
Enilconazole,https://cb.imsc.res.in/deduct/chemical/eJaFhpJwaHBt,35554-44-0
Enniatin B,https://cb.imsc.res.in/deduct/chemical/eJaFhpBva3BtZA,917-13-5
Enzacamene,https://cb.imsc.res.in/deduct/chemical/eJaFhpVtam1qYWw,36861-47-9
Epichlorohydrin,https://cb.imsc.res.in/deduct/chemical/eJaFhpZxam4,106-89-8
Epoxiconazole,https://cb.imsc.res.in/deduct/chemical/eJaFhpJsaHBoaGY,133855-98-8
Equol,https://cb.imsc.res.in/deduct/chemical/eJaFhphqa29x,531-95-3
Escitalopram,https://cb.imsc.res.in/deduct/chemical/eJaFhpBtbW5vYA,128196-01-0
Esfenvalerate,https://cb.imsc.res.in/deduct/chemical/eJaFhpBpam1qYGp-,66230-04-4
Estradiol 3-benzoate,https://cb.imsc.res.in/deduct/chemical/eJaFhpFraXBtZw,50-50-0
Estradiol valerate,https://cb.imsc.res.in/deduct/chemical/eJaFhpBsbnJp,979-32-8
Ethambutol,https://cb.imsc.res.in/deduct/chemical/eJaFhpBtZ25q,74-55-5
Ethanol,https://cb.imsc.res.in/deduct/chemical/eJaFhpZpaQ,64-17-5
Ethinylestradiol,https://cb.imsc.res.in/deduct/chemical/eJaFhpRycGo,57-63-6
Ethoxyethanol acetate,https://cb.imsc.res.in/deduct/chemical/eJaFhpdpcG4,111-15-9
Ethyl 4-hydroxybenzoate,https://cb.imsc.res.in/deduct/chemical/eJaFhpdtam0,120-47-8
Ethyl p-nitrophenyl benzenethiophosphonate,https://cb.imsc.res.in/deduct/chemical/eJaFhpBva2tp,2104-64-5
Ethylbenzene,https://cb.imsc.res.in/deduct/chemical/eJaFhpZuZ2k,100-41-4
Ethylene glycol monobutyl ether,https://cb.imsc.res.in/deduct/chemical/eJaFhpdqamw,111-76-2
Ethylene glycol monoethyl ether,https://cb.imsc.res.in/deduct/chemical/eJaFhpdpbm8,110-80-5
Ethylene glycol monomethyl ether,https://cb.imsc.res.in/deduct/chemical/eJaFhpdpaHI,109-86-4
Ethylene oxide,https://cb.imsc.res.in/deduct/chemical/eJaFhpVsbG0,75-21-8
Ethylene thiourea,https://cb.imsc.res.in/deduct/chemical/eJaFhpFwaWxuZWU,96-45-7
Ethylketocyclazocine,https://cb.imsc.res.in/deduct/chemical/eJaFhpNtam1oaQ,36292-66-7
Etomidate,https://cb.imsc.res.in/deduct/chemical/eJaFhpVvbm1wZA,33125-97-2
Etorphine,https://cb.imsc.res.in/deduct/chemical/eJaFhpVta2toaQ,14521-96-1
Fadrozole,https://cb.imsc.res.in/deduct/chemical/eJaFhpRybXJr,102676-47-1
FC-143 surfactant,https://cb.imsc.res.in/deduct/chemical/eJaFhpFwbm9qaGc,3825-26-1
Fenarimol,https://cb.imsc.res.in/deduct/chemical/eJaFhpNsaWtu,60168-88-9
Fenbuconazole,https://cb.imsc.res.in/deduct/chemical/eJaFhpdvaGxw,114369-43-6
Fenbutatin oxide,https://cb.imsc.res.in/deduct/chemical/eJaFhpBvbXFrYGWB,13356-08-6
Fenhexamid,https://cb.imsc.res.in/deduct/chemical/eJaFhpFqamlrYQ,126833-17-8
Fenitrothion,https://cb.imsc.res.in/deduct/chemical/eJaFhpJqaWlo,122-14-5
Fenvalerate,https://cb.imsc.res.in/deduct/chemical/eJaFhpJsa3A,51630-58-1
Finasteride,https://cb.imsc.res.in/deduct/chemical/eJaFhpRwam9r,98319-26-7
Fipronil,https://cb.imsc.res.in/deduct/chemical/eJaFhpJsbGs,120068-37-3
Firemaster Bp-6,https://cb.imsc.res.in/deduct/chemical/eJaFhpBub29qaQ,59536-65-1
Fluconazole,https://cb.imsc.res.in/deduct/chemical/eJaFhpJsbW4,86386-73-4
Fludioxonil,https://cb.imsc.res.in/deduct/chemical/eJaFhpdvanJw,131341-86-1
Flufenacet,https://cb.imsc.res.in/deduct/chemical/eJaFhpdva2tx,142459-58-3
Flumorph,https://cb.imsc.res.in/deduct/chemical/eJaFhpBqZ25vZ2qC,211867-47-9
Fluoxetine,https://cb.imsc.res.in/deduct/chemical/eJaFhpJsb28,54910-89-3
Flusilazole,https://cb.imsc.res.in/deduct/chemical/eJaFhpZsbXBt,85509-19-9
Flutamide,https://cb.imsc.res.in/deduct/chemical/eJaFhpJscHA,13311-84-7
Flutolanil,https://cb.imsc.res.in/deduct/chemical/eJaFhpNwb3Jw,66332-96-5
Fluvoxamine,https://cb.imsc.res.in/deduct/chemical/eJaFhpRsaW1rZGs,54739-18-3
Folpet,https://cb.imsc.res.in/deduct/chemical/eJaFhpdvZ3A,133-07-3
Formaldehyde,https://cb.imsc.res.in/deduct/chemical/eJaFhpZqaQ,50-00-0
Formamide,https://cb.imsc.res.in/deduct/chemical/eJaFhpZqag,75-12-7
Formestane,https://cb.imsc.res.in/deduct/chemical/eJaFhpBqaXBr,566-48-3
Formononetin,https://cb.imsc.res.in/deduct/chemical/eJaFhpRrb2lrZ20,485-72-3
Fulvestrant,https://cb.imsc.res.in/deduct/chemical/eJaFhpBpa3BsYQ,129453-61-8
Furan,https://cb.imsc.res.in/deduct/chemical/eJaFhpdpaXI,110-00-9
Galaxolide,https://cb.imsc.res.in/deduct/chemical/eJaFhphqa3Jv,1222-05-5
Genistein,https://cb.imsc.res.in/deduct/chemical/eJaFhpRrb2lxZmY,446-72-0
Genistin,https://cb.imsc.res.in/deduct/chemical/eJaFhpRrb2prZ2w,529-59-9
Gingerol,https://cb.imsc.res.in/deduct/chemical/eJaFhpNtaXBxYw,23513-14-6
Glutaraldehyde,https://cb.imsc.res.in/deduct/chemical/eJaFhpJtb24,111-30-8
Glycidol,https://cb.imsc.res.in/deduct/chemical/eJaFhpBqaG9s,556-52-5
Glyphosate,https://cb.imsc.res.in/deduct/chemical/eJaFhpJtcG8,1071-83-6
Glyphosate-isopropylammonium,https://cb.imsc.res.in/deduct/chemical/eJaFhpJxZ3Bw,38641-94-0
Guanethidine,https://cb.imsc.res.in/deduct/chemical/eJaFhpJuaHE,55-65-2
Heptachlor,https://cb.imsc.res.in/deduct/chemical/eJaFhpJub3I,76-44-8
Hexabromocyclododecane,https://cb.imsc.res.in/deduct/chemical/eJaFhpBubmtsZmyF,25637-99-4
Hexabutyldistannane,https://cb.imsc.res.in/deduct/chemical/eJaFhpVsaXBwYWo,813-19-4
Hexachlorobenzene,https://cb.imsc.res.in/deduct/chemical/eJaFhpdsbmk,118-74-1
Hexane,https://cb.imsc.res.in/deduct/chemical/eJaFhpdpbHE,110-54-3
Hexylresorcinol,https://cb.imsc.res.in/deduct/chemical/eJaFhpJvaGk,136-77-6
Homosalate,https://cb.imsc.res.in/deduct/chemical/eJaFhpdsbWs,118-56-9
Humic acid,https://cb.imsc.res.in/deduct/chemical/eJaFhphpa3BqYGeF,No CAS in DEDuCT
Hydroxycyclohexyl phenyl ketone,https://cb.imsc.res.in/deduct/chemical/eJaFhpZpam5t,947-19-3
Hydroxyflutamide,https://cb.imsc.res.in/deduct/chemical/eJaFhphqbW1x,52806-53-8
Hydroxytamoxifen,https://cb.imsc.res.in/deduct/chemical/eJaFhpNtcG1taQ,68047-06-3
Ibuprofen,https://cb.imsc.res.in/deduct/chemical/eJaFhpJvbms,15687-27-1
Imidacloprid,https://cb.imsc.res.in/deduct/chemical/eJaFhpdvaXFvZWaF,138261-41-3
Indole-3-carbinol,https://cb.imsc.res.in/deduct/chemical/eJaFhpJwaGs,700-06-1
Indomethacin,https://cb.imsc.res.in/deduct/chemical/eJaFhpJwaG4,53-86-1
Iodine,https://cb.imsc.res.in/deduct/chemical/eJaFhpdpbg,7553-56-2
Iodoacetic acid,https://cb.imsc.res.in/deduct/chemical/eJaFhpRra2k,64-69-7
Iprodione,https://cb.imsc.res.in/deduct/chemical/eJaFhpJwbGpv,36734-19-7
Iron dextran,https://cb.imsc.res.in/deduct/chemical/eJaFhpBpbGlvZQ,10124-49-9
Isobutyl p-hydroxybenzoate,https://cb.imsc.res.in/deduct/chemical/eJaFhpFpaW1o,4247-02-3
Isoflurane,https://cb.imsc.res.in/deduct/chemical/eJaFhpJwbWw,26675-46-7
Isoniazid,https://cb.imsc.res.in/deduct/chemical/eJaFhpJwbXA,54-85-3
Isoprene,https://cb.imsc.res.in/deduct/chemical/eJaFhpVubHA,78-79-5
Isopropylparaben,https://cb.imsc.res.in/deduct/chemical/eJaFhpFpaG9p,4191-73-5
Isoprothiolane,https://cb.imsc.res.in/deduct/chemical/eJaFhpJybXFp,50512-35-1
Kappa-Bifenthrin,https://cb.imsc.res.in/deduct/chemical/eJaFhpVta2twZGc,439680-76-9
Ketoconazole,https://cb.imsc.res.in/deduct/chemical/eJaFhpNubWtoYQ,65277-42-1
Kojic acid,https://cb.imsc.res.in/deduct/chemical/eJaFhpJxa2k,501-30-4
Lambda-Cyhalothrin,https://cb.imsc.res.in/deduct/chemical/eJaFhpVta2ltZWk,91465-08-6
"lambda-Cyhalothrin, (-)-",https://cb.imsc.res.in/deduct/chemical/eJaFhpVta2ltZWw,76703-65-6
Lamotrigine,https://cb.imsc.res.in/deduct/chemical/eJaFhpJxbnE,84057-84-1
Lead,https://cb.imsc.res.in/deduct/chemical/eJaFhpRsbGtsYmo,7439-92-1
Lead acetate,https://cb.imsc.res.in/deduct/chemical/eJaFhphsaHA,301-04-2
Letrozole,https://cb.imsc.res.in/deduct/chemical/eJaFhpJyZ2s,112809-51-5
Leucomalachite green,https://cb.imsc.res.in/deduct/chemical/eJaFhpVwaWpt,129-73-7
Leukotoxin diols,https://cb.imsc.res.in/deduct/chemical/eJaFhphybW9uZGU,No CAS in DEDuCT
Levetiracetam,https://cb.imsc.res.in/deduct/chemical/eJaFhpRrb21taGg,102767-28-2
Lilial,https://cb.imsc.res.in/deduct/chemical/eJaFhpFrb3JwZw,80-54-6
Lindane,https://cb.imsc.res.in/deduct/chemical/eI6UhpRxZHFxXW4,58-89-9
Linuron,https://cb.imsc.res.in/deduct/chemical/eJaFhphuZ2s,330-55-2
Lipopolysaccharide,https://cb.imsc.res.in/deduct/chemical/eJaFhpBqcHBoYWmA,No CAS in DEDuCT
Lovastatin,https://cb.imsc.res.in/deduct/chemical/eJaFhpRsaWxq,75330-75-5
Luteolin,https://cb.imsc.res.in/deduct/chemical/eJaFhpRrb2lsZGo,491-70-3
m-Chlorostyrene,https://cb.imsc.res.in/deduct/chemical/eJaFhpBtcGlt,2039-85-2
m-Dichlorobenzene,https://cb.imsc.res.in/deduct/chemical/eJaFhpBpcG1r,541-73-1
Malachite green,https://cb.imsc.res.in/deduct/chemical/eJaFhpBqaXJs,569-64-2
Malachite Green carbinol base,https://cb.imsc.res.in/deduct/chemical/eJaFhpBpbGtp,510-13-4
Malaoxon,https://cb.imsc.res.in/deduct/chemical/eJaFhpBua2pt,1634-78-2
Malathion,https://cb.imsc.res.in/deduct/chemical/eJaFhpNpZ20,121-75-5
Mancozeb,https://cb.imsc.res.in/deduct/chemical/eJaFhpJpam1rZm0,8018-01-7
Maneb,https://cb.imsc.res.in/deduct/chemical/eJaFhpJpamttaGY,12427-38-2
Manganese,https://cb.imsc.res.in/deduct/chemical/eJaFhpFscGxo,7439-96-5
Manganese chloride,https://cb.imsc.res.in/deduct/chemical/eJaFhpBpamprYWiB,7773-01-5
Manganese oxide,https://cb.imsc.res.in/deduct/chemical/eJaFhpBtb2tt,1317-35-7
Medrogestone,https://cb.imsc.res.in/deduct/chemical/eJaFhphya3JwZG0,977-79-7
Medroxyprogesterone,https://cb.imsc.res.in/deduct/chemical/eJaFhpBpbWxp,520-85-4
Medroxyprogesterone 17-acetate,https://cb.imsc.res.in/deduct/chemical/eJaFhpVrbnI,71-58-9
Mefentrifluconazole,https://cb.imsc.res.in/deduct/chemical/eJaFhpZqaWxoZmx-,1417782-03-6
Melamine,https://cb.imsc.res.in/deduct/chemical/eJaFhpZybG4,108-78-1
Mercuric chloride,https://cb.imsc.res.in/deduct/chemical/eJaFhpFtZ3Ft,7487-94-7
Mercury chloride,https://cb.imsc.res.in/deduct/chemical/eJaFhpBwaGlqYg,51312-24-4
Methamidophos,https://cb.imsc.res.in/deduct/chemical/eJaFhpNpcG8,10265-92-6
Methanol,https://cb.imsc.res.in/deduct/chemical/eJaFhpdxbg,67-56-1
Methiocarb,https://cb.imsc.res.in/deduct/chemical/eJaFhpBvaW1w,2032-65-7
Methoxyacetic acid,https://cb.imsc.res.in/deduct/chemical/eJaFhpBraW5p,625-45-6
Methoxychlor,https://cb.imsc.res.in/deduct/chemical/eJaFhpNqaG4,72-43-5
Methyl 2-benzoylbenzoate,https://cb.imsc.res.in/deduct/chemical/eJaFhpBqb2pu,606-28-0
Methyl bromide,https://cb.imsc.res.in/deduct/chemical/eJaFhpVsaWw,74-83-9
Methyl methacrylate,https://cb.imsc.res.in/deduct/chemical/eJaFhpVvbHE,80-62-6
Methyl p-hydroxybenzoate,https://cb.imsc.res.in/deduct/chemical/eJaFhpZtbG8,99-76-3
Methyl parathion,https://cb.imsc.res.in/deduct/chemical/eJaFhpNqamk,298-00-0
Methylbenzene,https://cb.imsc.res.in/deduct/chemical/eJaFhpBqa2k,108-88-3
Methylcholanthrene,https://cb.imsc.res.in/deduct/chemical/eJaFhpBvbm0,56-49-5
Methylenedianiline dihydrochloride,https://cb.imsc.res.in/deduct/chemical/eJaFhpFvaGlw,13552-44-8
Methylmercuric chloride,https://cb.imsc.res.in/deduct/chemical/eJaFhpNpcGxoYQ,115-09-3
Methylmercury,https://cb.imsc.res.in/deduct/chemical/eJaFhpVxbWk,22967-92-6
Methyltestosterone,https://cb.imsc.res.in/deduct/chemical/eJaFhpVpaGk,58-18-4
Metribuzin,https://cb.imsc.res.in/deduct/chemical/eJaFhpJpa3Bx,21087-64-9
Miconazole,https://cb.imsc.res.in/deduct/chemical/eJaFhpNqb3I,22916-47-8
Mifepristone,https://cb.imsc.res.in/deduct/chemical/eJaFhpRuaW1t,84371-65-3
Mirex,https://cb.imsc.res.in/deduct/chemical/eJaFhpBvcG1t,2385-85-5
Mitotane,https://cb.imsc.res.in/deduct/chemical/eJaFhpNraGo,53-19-0
Molinate,https://cb.imsc.res.in/deduct/chemical/eJaFhpBvbW5r,2212-67-1
Mono-(2-ethylhexyl)phthalate,https://cb.imsc.res.in/deduct/chemical/eJaFhpFpanJr,4376-20-9
Mono-n-butyltin,https://cb.imsc.res.in/deduct/chemical/eJaFhpRtaW9v,78763-54-9
Mono(2-ethyl-5-hydroxyhexyl) phthalate,https://cb.imsc.res.in/deduct/chemical/eJaFhpBwZ2txZQ,40321-99-1
Mono(2-ethyl-5-oxohexyl)phthalate,https://cb.imsc.res.in/deduct/chemical/eJaFhpBqcGlxZg,40321-98-0
Mono(2-ethylhexyl) terephthalate,https://cb.imsc.res.in/deduct/chemical/eJaFhpBua29wYw,155603-50-2
Monobutyl phthalate,https://cb.imsc.res.in/deduct/chemical/eJaFhpdubm4,131-70-4
Monophenyltin,https://cb.imsc.res.in/deduct/chemical/eI6UhpFtZ29lZm16cQ,2406-68-0
Monosodium glutamate,https://cb.imsc.res.in/deduct/chemical/eJaFhpFsbXBqY2WF,142-47-2
Morphine,https://cb.imsc.res.in/deduct/chemical/eJaFhpRrb3FwYms,57-27-2
Myclobutanil,https://cb.imsc.res.in/deduct/chemical/eJaFhpVsam8,88671-89-0
Myricetin,https://cb.imsc.res.in/deduct/chemical/eJaFhpRrb2puZ2c,529-44-2
N-(6-Aminopyridin-2-yl)-4'-cyanobiphenyl-4-sulfonamide,https://cb.imsc.res.in/deduct/chemical/eJaFhpFsbmttYWeA,857290-04-1
N-Methyldiethanolamine,https://cb.imsc.res.in/deduct/chemical/eJaFhpZwbXA,105-59-9
N-Nitrosodiethylamine,https://cb.imsc.res.in/deduct/chemical/eJaFhpRyaWo,55-18-5
"N,N-Diphenyl-p-phenylenediamine",https://cb.imsc.res.in/deduct/chemical/eJaFhpZuanBp,2350-01-8
"N,N'-Diphenyl-4-phenylenediamine",https://cb.imsc.res.in/deduct/chemical/eJaFhpVsaHI,74-31-7
"N,N'-Methylene-bis(2-amino-5-sulfhydryl-1,3,4-thiadiazole)",https://cb.imsc.res.in/deduct/chemical/eJaFhpJpam5wYm4,79319-85-0
Nafoxidine hydrochloride,https://cb.imsc.res.in/deduct/chemical/eJaFhpBub2lt,1847-63-8
Naloxone,https://cb.imsc.res.in/deduct/chemical/eJaFhpRrb21taWs,465-65-6
Naltrexone,https://cb.imsc.res.in/deduct/chemical/eJaFhpRsbWltYWo,16590-41-3
Napropamide,https://cb.imsc.res.in/deduct/chemical/eJaFhpFwaHFx,15299-99-7
Napropamide-M,https://cb.imsc.res.in/deduct/chemical/eJaFhpBsZ2praGuC,41643-35-0
Naproxen,https://cb.imsc.res.in/deduct/chemical/eJaFhpBubWxxYQ,22204-53-1
Naringenin,https://cb.imsc.res.in/deduct/chemical/eJaFhpNscGtsZg,480-41-1
Neanthine,https://cb.imsc.res.in/deduct/chemical/eJaFhpBrbGtpY2qE,123-88-6
Nickel sulfate,https://cb.imsc.res.in/deduct/chemical/eJaFhpFtbHFu,7786-81-4
Nicotine,https://cb.imsc.res.in/deduct/chemical/eJaFhpdybHJs,54-11-5
Nitrate ion,https://cb.imsc.res.in/deduct/chemical/eJaFhphtag,14797-55-8
Nitrobenzene,https://cb.imsc.res.in/deduct/chemical/eJaFhpZtaG8,98-95-3
Nitrofen,https://cb.imsc.res.in/deduct/chemical/eJaFhpBubnFv,1836-75-5
Nitrogen oxide,https://cb.imsc.res.in/deduct/chemical/eJaFhphtbw,10024-97-2
Nonane,https://cb.imsc.res.in/deduct/chemical/eJaFhpdqa2o,111-84-2
Noramidopyrine,https://cb.imsc.res.in/deduct/chemical/eJaFhpBpbWpw,519-98-2
Nordihydroguaiaretic acid,https://cb.imsc.res.in/deduct/chemical/eJaFhpNuam0,500-38-9
o-Chlorostyrene,https://cb.imsc.res.in/deduct/chemical/eJaFhpBtcGlu,2039-87-4
o-Dianisidine dihydrochloride,https://cb.imsc.res.in/deduct/chemical/eJaFhpVrampp,20325-40-0
"o,p'-DDT",https://cb.imsc.res.in/deduct/chemical/eJaFhpBsZ3Fx,789-02-6
Ochratoxin A,https://cb.imsc.res.in/deduct/chemical/eJaFhpNtaW5rYA,303-47-9
Octachlorostyrene,https://cb.imsc.res.in/deduct/chemical/eJaFhpJta29u,29082-74-4
Octamethylcyclotetrasiloxane,https://cb.imsc.res.in/deduct/chemical/eJaFhpBqaG9x,556-67-2
Octane,https://cb.imsc.res.in/deduct/chemical/eJaFhpJubQ,111-65-9
Octyl dimethyl 4-aminobenzoic acid,https://cb.imsc.res.in/deduct/chemical/eJaFhpNrb25p,58817-05-3
Octylphenol,https://cb.imsc.res.in/deduct/chemical/eJaFhpBsbmlo,67554-50-1
"Omeprazole, (R)-",https://cb.imsc.res.in/deduct/chemical/eJaFhphubnJtZ20,119141-89-8
Ornidazole,https://cb.imsc.res.in/deduct/chemical/eJaFhpFxZ29p,16773-42-5
"Oxanthrene, 2,3,7-tribromo-8-chloro-",https://cb.imsc.res.in/deduct/chemical/eJaFhpBxamlpZg,131167-12-9
Oxytetracycline,https://cb.imsc.res.in/deduct/chemical/eJaFhpRtbXBtZ2yG,79-57-2
p-Aminophenol,https://cb.imsc.res.in/deduct/chemical/eJaFhpNpag,123-30-8
p-Benzylphenol,https://cb.imsc.res.in/deduct/chemical/eJaFhpZubWw,101-53-1
p-Bromophenyl phenyl ether,https://cb.imsc.res.in/deduct/chemical/eJaFhpZubW4,101-55-3
p-Chloroaniline hydrochloride,https://cb.imsc.res.in/deduct/chemical/eJaFhpRrb21rZmg,20265-96-7
p-Chlorostyrene,https://cb.imsc.res.in/deduct/chemical/eJaFhpBtZ3Ft,1073-67-2
p-Cresidine,https://cb.imsc.res.in/deduct/chemical/eJaFhpdta24,120-71-8
p-Cresol,https://cb.imsc.res.in/deduct/chemical/eJaFhpFxbnI,106-44-5
p-Nitrophenol,https://cb.imsc.res.in/deduct/chemical/eJaFhphxZw,100-02-7
p-tert-Amylphenol,https://cb.imsc.res.in/deduct/chemical/eJaFhpVva2w,80-46-6
p-tert-Butyl catechol,https://cb.imsc.res.in/deduct/chemical/eJaFhpZsb2o,98-29-3
Padimate-O,https://cb.imsc.res.in/deduct/chemical/eJaFhpJpbG1p,21245-02-3
Palladium,https://cb.imsc.res.in/deduct/chemical/eJaFhpFscGxw,7440-05-3
Paraquat,https://cb.imsc.res.in/deduct/chemical/eJaFhpBucGxx,4685-14-7
Paraquat dichloride,https://cb.imsc.res.in/deduct/chemical/eJaFhpBucGxw,1910-42-5
Parathion,https://cb.imsc.res.in/deduct/chemical/eJaFhphyaA,56-38-2
Paroxetine,https://cb.imsc.res.in/deduct/chemical/eJaFhpNsb2pt,61869-08-7
Patulin,https://cb.imsc.res.in/deduct/chemical/eJaFhpNvcG8,149-29-1
PEG-3 Sorbitan oleate,https://cb.imsc.res.in/deduct/chemical/eJaFhpRrb21sZG0,9005-65-6
Penconazole,https://cb.imsc.res.in/deduct/chemical/eJaFhphqbXJr,66246-88-6
Pendimethalin,https://cb.imsc.res.in/deduct/chemical/eJaFhpJxa3Bx,40487-42-1
Penfenate,https://cb.imsc.res.in/deduct/chemical/eJaFhpdyZ21o,21757-82-4
Pentachlorobenzene,https://cb.imsc.res.in/deduct/chemical/eJaFhpBqb25t,608-93-5
Pentachlorophenol,https://cb.imsc.res.in/deduct/chemical/eJaFhphyaQ,87-86-5
Perchlorate,https://cb.imsc.res.in/deduct/chemical/eJaFhpBramxtYQ,14797-73-0
Perfluoro-1-iodohexane,https://cb.imsc.res.in/deduct/chemical/eJaFhpVwbmxr,355-43-1
Perfluoro-n-nonanoic acid,https://cb.imsc.res.in/deduct/chemical/eJaFhpVwb2tp,375-95-1
Perfluoro-n-undecanoic acid,https://cb.imsc.res.in/deduct/chemical/eJaFhpZwaWtq,2058-94-8
Perfluorodecanoic acid,https://cb.imsc.res.in/deduct/chemical/eJaFhphubG4,335-76-2
Perfluorododecanoic acid,https://cb.imsc.res.in/deduct/chemical/eJaFhpVwbG1t,307-55-1
Perfluorohexane sulfonate,https://cb.imsc.res.in/deduct/chemical/eJaFhpFpbGpoZ26D,108427-53-8
Perfluorohexanesulfonic acid,https://cb.imsc.res.in/deduct/chemical/eJaFhpVwbmxs,355-46-4
Perfluorooctane sulfonic acid,https://cb.imsc.res.in/deduct/chemical/eJaFhpZta3Fr,1763-23-1
Perfluorooctanoic acid,https://cb.imsc.res.in/deduct/chemical/eJaFhphubG0,335-67-1
Perfluorooctyl iodide,https://cb.imsc.res.in/deduct/chemical/eJaFhpBpa3Jp,507-63-1
Permethrin,https://cb.imsc.res.in/deduct/chemical/eJaFhpNpamtu,52645-53-1
"Permethrin, cis-",https://cb.imsc.res.in/deduct/chemical/eJaFhpNpa29r,61949-76-6
Phenobarbital,https://cb.imsc.res.in/deduct/chemical/eJaFhpNwbWw,50-06-6
"Phenol, 2,5-dibromo-4-(2,4-dibromophenoxy)-",https://cb.imsc.res.in/deduct/chemical/eJaFhpBqZ3JqY2iE,602326-23-8
"Phenol, 4-((4-(phenylmethoxy)phenyl)sulfonyl)-",https://cb.imsc.res.in/deduct/chemical/eJaFhpBqamluYw,63134-33-8
"Phenol, 4,4'-(1,1-dimethyl-3-methylene-1,3-propanediyl)bis-",https://cb.imsc.res.in/deduct/chemical/eJaFhpdsa3Js,13464-24-9
"Phenol, 4,4'-(1,3-phenylenebis(1-methylethylidene))bis-",https://cb.imsc.res.in/deduct/chemical/eJaFhpJrcGtpYGU,13595-25-0
"Phenol, 4,4'-(9H-fluoren-9-ylidene)bis-",https://cb.imsc.res.in/deduct/chemical/eJaFhpZvbmpu,3236-71-3
Phenolsulfonphthalein,https://cb.imsc.res.in/deduct/chemical/eJaFhpNwbW8,143-74-8
Phenothrin,https://cb.imsc.res.in/deduct/chemical/eJaFhpNwbXA,26002-80-2
Phentin acetate,https://cb.imsc.res.in/deduct/chemical/eJaFhpBvbXFqaGWB,900-95-8
Phenyl salicylate,https://cb.imsc.res.in/deduct/chemical/eJaFhpdsbWo,118-55-8
Phenylmercuric acetate,https://cb.imsc.res.in/deduct/chemical/eJaFhpBvbXFqZ2h9,62-38-4
Phloretin,https://cb.imsc.res.in/deduct/chemical/eJaFhpNwb3E,60-82-2
Phloroglucinol,https://cb.imsc.res.in/deduct/chemical/eJaFhpJucA,108-73-6
"Phosphoric acid, diphenyl ester",https://cb.imsc.res.in/deduct/chemical/eJaFhpBsaXFq,838-85-7
Photomirex,https://cb.imsc.res.in/deduct/chemical/eJaFhphqbWxq,39801-14-4
Phtpp,https://cb.imsc.res.in/deduct/chemical/eJaFhpBqaWlpYGiC,805239-56-9
Potassium dichromate,https://cb.imsc.res.in/deduct/chemical/eJaFhpFtbGlq,7778-50-9
Potassium perchlorate,https://cb.imsc.res.in/deduct/chemical/eJaFhpRqbXJoYA,7778-74-7
Potassium perfluorooctanesulfonate,https://cb.imsc.res.in/deduct/chemical/eJaFhpFsbW9xYmiF,2795-39-3
Pregnenolone carbonitrile,https://cb.imsc.res.in/deduct/chemical/eJaFhpBuZ2xq,1434-54-4
Prochloraz,https://cb.imsc.res.in/deduct/chemical/eJaFhpZsbW9t,67747-09-5
Procymidone,https://cb.imsc.res.in/deduct/chemical/eJaFhpJvaW1q,32809-16-8
Profenofos,https://cb.imsc.res.in/deduct/chemical/eJaFhpJxbnBx,41198-08-7
Prometryn,https://cb.imsc.res.in/deduct/chemical/eJaFhpNyaXI,7287-19-6
Propanil,https://cb.imsc.res.in/deduct/chemical/eJaFhpNyamw,709-98-8
"Propanoic acid, 2-(4-(2,4-dichlorophenoxy)phenoxy)-, methyl ester, (2S)-",https://cb.imsc.res.in/deduct/chemical/eJaFhpBubW5sYg,75021-72-6
Propazine,https://cb.imsc.res.in/deduct/chemical/eJaFhpNyanA,139-40-2
Propiconazole,https://cb.imsc.res.in/deduct/chemical/eJaFhpNsaWxs,60207-90-1
Propionaldehyde,https://cb.imsc.res.in/deduct/chemical/eJaFhpRrbg,123-38-6
Propisochlor,https://cb.imsc.res.in/deduct/chemical/eJaFhpBvbm1tZA,86763-47-5
Propyl p-hydroxybenzoate,https://cb.imsc.res.in/deduct/chemical/eJaFhpZqbm4,94-13-3
Propyl thiouracil,https://cb.imsc.res.in/deduct/chemical/eJaFhpVubmtxaA,51-52-5
Propylene,https://cb.imsc.res.in/deduct/chemical/eJaFhpdrbGs,115-07-1
Pulmatin,https://cb.imsc.res.in/deduct/chemical/eJaFhpNtaXBrYQ,13241-28-6
Pyrazinamide,https://cb.imsc.res.in/deduct/chemical/eJaFhpBpa28,98-96-4
Pyriproxyfen,https://cb.imsc.res.in/deduct/chemical/eJaFhphqbm5r,95737-68-1
Quadrosilan,https://cb.imsc.res.in/deduct/chemical/eJaFhpFpbnBs,4657-20-9
Quercetin,https://cb.imsc.res.in/deduct/chemical/eJaFhpRrb2lrZGg,117-39-5
Quinalphos,https://cb.imsc.res.in/deduct/chemical/eJaFhpFvaGts,13593-03-8
Rac-[6]-Gingerol,https://cb.imsc.res.in/deduct/chemical/eJaFhpJtbmw,39886-76-5
Raloxifene,https://cb.imsc.res.in/deduct/chemical/eJaFhpRpam4,84449-90-1
Reserpine,https://cb.imsc.res.in/deduct/chemical/eJaFhpRwbmk,50-55-5
Resveratrol,https://cb.imsc.res.in/deduct/chemical/eJaFhpNtbGptZA,501-36-0
Ribavirin,https://cb.imsc.res.in/deduct/chemical/eJaFhpJwbG1q,36791-04-5
Rifampin,https://cb.imsc.res.in/deduct/chemical/eJaFhpBsbGxxaGyAdg,13292-46-1
Rosmarinic acid,https://cb.imsc.res.in/deduct/chemical/eJaFhpRrb2pvaWc,20283-92-5
S-Metolachlor,https://cb.imsc.res.in/deduct/chemical/eJaFhpBqaG1oZmWC,87392-12-9
Saisentong,https://cb.imsc.res.in/deduct/chemical/eJaFhpBpaWpxZm6DeQ,No CAS in DEDuCT
Santowhite powder,https://cb.imsc.res.in/deduct/chemical/eJaFhpVxaG4,85-60-9
Sertraline,https://cb.imsc.res.in/deduct/chemical/eJaFhpVxbWpv,79617-96-2
Sildenafil,https://cb.imsc.res.in/deduct/chemical/eJaFhpBsbGxxaGyBdQ,139755-83-2
Simazine,https://cb.imsc.res.in/deduct/chemical/eJaFhpRraG8,122-34-9
Simvastatin,https://cb.imsc.res.in/deduct/chemical/eJaFhpRta25s,79902-63-9
Sodium arsenite,https://cb.imsc.res.in/deduct/chemical/eJaFhpNtam1xZQ,7784-46-5
Sodium bromate,https://cb.imsc.res.in/deduct/chemical/eJaFhpFsbW9wYW6C,7789-38-0
Sodium bromide,https://cb.imsc.res.in/deduct/chemical/eJaFhpFuanFwYQ,7647-15-6
Sodium chlorite,https://cb.imsc.res.in/deduct/chemical/eJaFhpFsbW9wYW6E,7758-19-2
Sodium fluoride,https://cb.imsc.res.in/deduct/chemical/eJaFhpRram4,7681-49-4
Sodium methyldithiocarbamate,https://cb.imsc.res.in/deduct/chemical/eJaFhpRsbW9sYWo,137-42-8
Sodium nitrite,https://cb.imsc.res.in/deduct/chemical/eJaFhpFsbW9wYW6A,7632-00-0
Sodium silicate,https://cb.imsc.res.in/deduct/chemical/eJaFhpFsaW9u,1344-09-8
Sodium sulfide,https://cb.imsc.res.in/deduct/chemical/eJaFhpFsbnFvYw,1313-82-2
Sodium thioglycolate,https://cb.imsc.res.in/deduct/chemical/eJaFhpFsbXJoZGmB,367-51-1
Spironolactone,https://cb.imsc.res.in/deduct/chemical/eJaFhpRxamw,52-01-7
Styrene,https://cb.imsc.res.in/deduct/chemical/eJaFhpZuZ2o,100-42-5
Sulfathiazole,https://cb.imsc.res.in/deduct/chemical/eJaFhpRsa2k,72-14-0
Sulpiride,https://cb.imsc.res.in/deduct/chemical/eJaFhpRsbG4,15676-16-1
Sunset Yellow,https://cb.imsc.res.in/deduct/chemical/eJaFhpBwbmxo,2783-94-0
t-Butyl hydroquinone,https://cb.imsc.res.in/deduct/chemical/eJaFhpBvZ21r,1948-33-0
t-Butyl methyl ether,https://cb.imsc.res.in/deduct/chemical/eJaFhpBua2pr,1634-04-4
Tadalafil,https://cb.imsc.res.in/deduct/chemical/eJaFhpBqZ29rZQ,171596-29-5
Tamoxifen,https://cb.imsc.res.in/deduct/chemical/eJaFhpFwamxtYms,10540-29-1
Tamoxifen citrate,https://cb.imsc.res.in/deduct/chemical/eJaFhpFwamxtYmo,54965-24-1
Tebuconazole,https://cb.imsc.res.in/deduct/chemical/eJaFhpdvaGlq,107534-96-3
Terbuthylazine,https://cb.imsc.res.in/deduct/chemical/eJaFhpFraWlu,5915-41-3
Terephthalic acid,https://cb.imsc.res.in/deduct/chemical/eJaFhpZtb3I,100-21-0
tert-Amyl methyl ether,https://cb.imsc.res.in/deduct/chemical/eJaFhpVqaW1v,994-05-8
Testolactone,https://cb.imsc.res.in/deduct/chemical/eJaFhpBsbm9x,968-93-4
Testosterone 17beta-cypionate,https://cb.imsc.res.in/deduct/chemical/eJaFhpNtaG1oZA,58-20-8
Testosterone propionate,https://cb.imsc.res.in/deduct/chemical/eJaFhpRycG4,57-85-2
Tetrabromobisphenol A,https://cb.imsc.res.in/deduct/chemical/eJaFhpVvaHE,79-94-7
Tetrabutyltin,https://cb.imsc.res.in/deduct/chemical/eJaFhpBuZ3Jw,1461-25-2
Tetrachlorobenzene (mixed isomers),https://cb.imsc.res.in/deduct/chemical/eJaFhpZrbmk,12408-10-5
Tetrachlorodibenzodioxin,https://cb.imsc.res.in/deduct/chemical/eJaFhpBubWtt,1746-01-6
Tetrachloroethylene,https://cb.imsc.res.in/deduct/chemical/eJaFhpJqanBr,127-18-4
Tetradecanoylphorbol acetate,https://cb.imsc.res.in/deduct/chemical/eJaFhpFwcGts,16561-29-8
Tetradifon,https://cb.imsc.res.in/deduct/chemical/eJaFhpdsZ24,116-29-0
Tetrahydrofuran,https://cb.imsc.res.in/deduct/chemical/eJaFhpdpaXE,109-99-9
Tetrahydrofurandiol,https://cb.imsc.res.in/deduct/chemical/eJaFhpJpaG9tZ20,50976-18-6
Tetrakis(hydroxymethyl)phosphonium sulfate,https://cb.imsc.res.in/deduct/chemical/eJaFhpNqa3Bw,55566-30-8
Tetramethrin,https://cb.imsc.res.in/deduct/chemical/eJaFhpdscHBt,7696-12-0
Tetramethylene dibenzoate,https://cb.imsc.res.in/deduct/chemical/eJaFhpFybGpp,19224-27-2
Tetramethylthiuram disulfide,https://cb.imsc.res.in/deduct/chemical/eJaFhpRtbG4,137-26-8
Theophylline,https://cb.imsc.res.in/deduct/chemical/eJaFhpFqbGw,58-55-9
theta-Cypermethrin,https://cb.imsc.res.in/deduct/chemical/eJaFhphqbXJp,71697-59-1
Thiacloprid,https://cb.imsc.res.in/deduct/chemical/eJaFhpBqbGtqZA,111988-49-9
Thiamethoxam,https://cb.imsc.res.in/deduct/chemical/eJaFhpRxaWpxYWY,153719-23-4
Thimerosal,https://cb.imsc.res.in/deduct/chemical/eJaFhpBvbXFsZGiB,54-64-8
Thiocyanate,https://cb.imsc.res.in/deduct/chemical/eJaFhphsaWs,302-04-5
Thiodiazole copper,https://cb.imsc.res.in/deduct/chemical/eI6UhpJram1lZmZ6dg,3234-61-5
Thiophanate-methyl,https://cb.imsc.res.in/deduct/chemical/eJaFhpJpamtvaWY,23564-05-8
Thymol,https://cb.imsc.res.in/deduct/chemical/eJaFhpVyb3I,89-83-8
Titanium dioxide,https://cb.imsc.res.in/deduct/chemical/eJaFhpFvZ21q,13463-67-7
"Toluene-2,4-diamine",https://cb.imsc.res.in/deduct/chemical/eJaFhpZrbWo,95-80-7
Tolylfluanid,https://cb.imsc.res.in/deduct/chemical/eJaFhpBrb3Jw,731-27-1
Toxaphene,https://cb.imsc.res.in/deduct/chemical/eJaFhpRrb21sZm4,8001-35-2
Tramadol,https://cb.imsc.res.in/deduct/chemical/eJaFhpJsbm1p,27203-92-5
Trenbolone,https://cb.imsc.res.in/deduct/chemical/eJaFhpFuZ2pt,10161-33-8
Tri-(2-chloroisopropyl)phosphate,https://cb.imsc.res.in/deduct/chemical/eJaFhpFvaHBu,13674-84-5
Tri-p-cresyl phosphate,https://cb.imsc.res.in/deduct/chemical/eJaFhpVuaXI,78-32-0
Tri(2-butoxyethyl) phosphate,https://cb.imsc.res.in/deduct/chemical/eJaFhpVua2k,78-51-3
Triadimefon,https://cb.imsc.res.in/deduct/chemical/eJaFhpJyanFt,43121-43-3
Triadimenol,https://cb.imsc.res.in/deduct/chemical/eJaFhpNqam9w,55219-65-3
Triazophos,https://cb.imsc.res.in/deduct/chemical/eJaFhpJraHFs,24017-47-8
Tributyl citrate,https://cb.imsc.res.in/deduct/chemical/eJaFhpVuZ3A,77-94-1
Tributyl phosphate,https://cb.imsc.res.in/deduct/chemical/eJaFhpJqam5v,126-73-8
Tributylchlorostannane,https://cb.imsc.res.in/deduct/chemical/eJaFhpBuZ3Ju,1461-22-9
Tributyltin,https://cb.imsc.res.in/deduct/chemical/eJaFhpJpamtvY2c,688-73-3
Tributyltin bromide,https://cb.imsc.res.in/deduct/chemical/eJaFhpJpbHBuZw,1461-23-0
Trichlorfon,https://cb.imsc.res.in/deduct/chemical/eJaFhpRxbGw,52-68-6
Trichloroacetic acid,https://cb.imsc.res.in/deduct/chemical/eJaFhpVtaWo,76-03-9
Trichloroethylene,https://cb.imsc.res.in/deduct/chemical/eJaFhpVubm4,79-01-6
Triclocarban,https://cb.imsc.res.in/deduct/chemical/eJaFhpZua3A,101-20-2
Triethanolamine,https://cb.imsc.res.in/deduct/chemical/eJaFhpZvaHE,102-71-6
Triflumizol,https://cb.imsc.res.in/deduct/chemical/eJaFhphqbXJx,68694-11-1
Trifluralin,https://cb.imsc.res.in/deduct/chemical/eJaFhpRubXI,1582-09-8
Trinitrotoluene,https://cb.imsc.res.in/deduct/chemical/eJaFhpdsbm8,118-96-7
Triphenyl phosphate,https://cb.imsc.res.in/deduct/chemical/eJaFhpdrb3I,115-86-6
Triphenyltin,https://cb.imsc.res.in/deduct/chemical/eJaFhpRsbHBsYGc,892-20-6
Triphenyltin chloride,https://cb.imsc.res.in/deduct/chemical/eJaFhpBrbG1o,639-58-7
Triphenyltin hydroxide,https://cb.imsc.res.in/deduct/chemical/eJaFhpVsaXBuZWw,76-87-9
Tripropyltin chloride,https://cb.imsc.res.in/deduct/chemical/eJaFhpBvbnFs,2279-76-7
Triptolide,https://cb.imsc.res.in/deduct/chemical/eJaFhpBpbnJwZQ,38748-32-2
"Tris(1,3-dichloro-2-propyl)phosphate",https://cb.imsc.res.in/deduct/chemical/eJaFhpFvaHBv,13674-87-8
Tris(2-chloroethyl) phosphate,https://cb.imsc.res.in/deduct/chemical/eJaFhpdrcG4,115-96-8
"Tris(2,3-dibromo-1-propyl) phosphate",https://cb.imsc.res.in/deduct/chemical/eJaFhpJqam5u,126-72-7
Triticonazole,https://cb.imsc.res.in/deduct/chemical/eJaFhpVuanBxZmY,131983-72-7
Uranium,https://cb.imsc.res.in/deduct/chemical/eJaFhpFscHFx,7440-61-1
Uranyl nitrate hexahydrate,https://cb.imsc.res.in/deduct/chemical/eJaFhpVqbW1o,13520-83-7
Valproic acid,https://cb.imsc.res.in/deduct/chemical/eJaFhpJqaWo,99-66-1
Versalide,https://cb.imsc.res.in/deduct/chemical/eJaFhpVyamk,88-29-9
Vinclozolin,https://cb.imsc.res.in/deduct/chemical/eJaFhpJybXBu,50471-44-8
Vinyl acetate,https://cb.imsc.res.in/deduct/chemical/eJaFhpZyZ20,108-05-4
Vinyl chloride,https://cb.imsc.res.in/deduct/chemical/eJaFhpVsanE,75-01-4
Vinylcyclohexene dioxide,https://cb.imsc.res.in/deduct/chemical/eJaFhpZxamw,106-87-6
Zearalenone,https://cb.imsc.res.in/deduct/chemical/eJaFhpRrb2ptZ2s,17924-92-4
Zeranol,https://cb.imsc.res.in/deduct/chemical/eJaFhpFycHJsYWg,26538-44-3
Zinc acetate,https://cb.imsc.res.in/deduct/chemical/eJaFhpBqaHJq,557-34-6
Zinc chloride,https://cb.imsc.res.in/deduct/chemical/eJaFhpRwaXA,7646-85-7
Zinc Sulfate,https://cb.imsc.res.in/deduct/chemical/eJaFhpFta2ts,7733-02-0
"Zinc, bis(dibutyldithiocarbamato)-",https://cb.imsc.res.in/deduct/chemical/eJaFhpRrb21saGg,136-23-2
Zineb,https://cb.imsc.res.in/deduct/chemical/eJaFhpRrb21saGk,9006-42-2
Ziram,https://cb.imsc.res.in/deduct/chemical/eJaFhpdwaWs,137-30-4
